SELECT
  *
FROM (
  SELECT
    CONCAT("<General_Info",">") AS General_Info /*************************/ /* General Info*/,
    softwareVersion,
    EXACT_COUNT_DISTINCT(cnc) AS numDevices,
    COUNT(*) AS numSessions,
    CONCAT("<Median",">") AS Median /*************************/ /* Median*/,
    /*Medians*/ ROUND(NTH(501, QUANTILES(IF(SessionDuration>0,SessionDuration/60000,NULL), 1001)),4) AS SessionDuration_Min__Median,
    -- the median is calculated for the positive numbers
    ROUND(NTH(501, QUANTILES(IF(rx>0,rx,NULL), 1001)),4) AS rx__Median,
    ROUND(NTH(501, QUANTILES(IF(tx>0,tx,NULL), 1001)),4) AS tx__Median,
    ROUND(NTH(501, QUANTILES(IF(maxRxThrpt>0,maxRxThrpt,NULL), 1001)),24) AS maxRxThrpt__Median,
    ROUND(NTH(501, QUANTILES(IF(maxTxThrpt>0,maxTxThrpt,NULL), 1001)),4) AS maxTxThrpt__Median,
    ROUND(NTH(501, QUANTILES(IF(Latency>0,Latency,NULL), 1001)),4) AS Latency__Median,
    ROUND(NTH(501, QUANTILES(IF(wAvgLatency>0,wAvgLatency,NULL), 1001)),4) AS wAvgLatency__Median,
    CONCAT("<Average",">") AS Average /*************************/ /* Average*/,
    AVG(IF(SessionDuration>0,SessionDuration/60000,NULL)) AS SessionDuration_Min__Average,
    AVG(IF(rx>0,rx,NULL)) AS rx__Average,
    AVG(IF(tx>0,tx,NULL)) AS tx__Average,
    AVG(IF(maxRxThrpt>0,maxRxThrpt,NULL)) AS maxRxThrpt__Average,
    AVG(IF(maxTxThrpt>0,maxTxThrpt,NULL)) AS maxTxThrpt__Average,
    AVG(IF(Latency>0,Latency,NULL)) AS Latency__Average,
    AVG(IF(wAvgLatency>0,wAvgLatency,NULL)) AS wAvgLatency__Average,
    CONCAT("<% of Failure",">") AS Failures /*************************/ /* % of Failures*/,
    ROUND((SUM(IF(SessionDuration<=0,1,0)) / COUNT(*)),4) AS SessionDuration__Not_Valid,
    ROUND((SUM(CASE
            WHEN (SessionType =SessionType AND SessionType <0 OR SessionType IS NULL ) THEN 1 -- sesion type lower than 1 is obnormal
            ELSE 0 END) /COUNT(*)),4) AS SessionType__Not_Valid,
    ROUND((SUM(CASE
            WHEN (crashState =crashState AND crashState >1 OR crashState IS NULL ) THEN 1
            ELSE 0 END) /COUNT(*)),4) AS crashState__Occurred,
    ROUND((SUM(CASE
            WHEN (lat =lat AND lat IN (0,  -1 ) OR lat IS NULL ) THEN 1
            ELSE 0 END) /COUNT(*)),4) AS lat__Not_Valid,
    ROUND((SUM(CASE
            WHEN (longt =longt AND longt IN (0,  -1 ) OR longt IS NULL ) THEN 1
            ELSE 0 END) /COUNT(*)),4) AS longt__Not_Valid,
    ROUND((SUM(CASE
            WHEN (accuracy =accuracy AND accuracy IN (0,  -1 ) OR accuracy IS NULL ) THEN 1
            ELSE 0 END) /COUNT(*)),4) AS accuracy__Not_Valid,
    ROUND((SUM(CASE
            WHEN (rx =rx AND rx IN (0,  -1 ) OR rx IS NULL ) THEN 1
            ELSE 0 END) /COUNT(*)),4) AS rx__Not_Valid,
    ROUND((SUM(CASE
            WHEN (tx =tx AND tx IN (0,  -1 ) OR tx IS NULL ) THEN 1
            ELSE 0 END) /COUNT(*)),4) AS tx__Not_Valid,
    ROUND((SUM(CASE
            WHEN (wefiRx =wefiRx AND wefiRx IN (0,  -1 ) OR wefiRx IS NULL ) THEN 1 -- Received traffic size during the session by wefi hosted application (that uses WeFi engine).
            ELSE 0 END) /COUNT(*)),4) AS wefiRx__Not_Valid,
    ROUND((SUM(CASE
            WHEN (wefiTx =wefiTx AND wefiTx IN (0,  -1 ) OR wefiTx IS NULL ) THEN 1 -- Transmitted traffic size during the session by wefi hosted application (that uses WeFi engine).
            ELSE 0 END) /COUNT(*)),4) AS wefiTx__Not_Valid,
    ROUND((SUM(CASE
            WHEN (maxRxThrpt =maxRxThrpt AND maxRxThrpt IN (0,  -1 ) OR maxRxThrpt IS NULL ) THEN 1 --Maximum received data rate that is calculated based on Rx delta measured in the session divided by RX readings time delta.
            ELSE 0 END) /COUNT(*)),4) AS maxRxThrpt__Not_Valid,
    ROUND((SUM(CASE
            WHEN (maxTxThrpt =maxTxThrpt AND maxTxThrpt IN (0,  -1 ) OR maxTxThrpt IS NULL ) THEN 1 -- Maximum transmitted data rate that is calculated based on Tx delta measured in the session divided by TX readings time delta.
            ELSE 0 END) /COUNT(*)),4) AS maxTxThrpt__Not_Valid,
    ROUND((SUM(CASE
            WHEN (Latency =Latency AND Latency IN (0,  -1 ) OR Latency IS NULL ) THEN 1
            ELSE 0 END) /COUNT(*)),4) AS Latency__Not_Valid,
    ROUND((SUM(CASE
            WHEN (wAvgLatency =wAvgLatency AND wAvgLatency IN (0,  -1 ) OR wAvgLatency IS NULL ) THEN 1 -- Average latency during session
            ELSE 0 END) /COUNT(*)),4) AS wAvgLatency__Not_Valid,
    ROUND((SUM(CASE
            WHEN (serverTalkStatus =serverTalkStatus AND serverTalkStatus IN (0,  -1 ) OR serverTalkStatus IS NULL ) THEN 1
            ELSE 0 END) /COUNT(*)),4) AS serverTalkStatus__Not_Valid,
    -- Enum that indicates server talk status
    ROUND((SUM(CASE
            WHEN (inetstate =inetstate AND inetstate IN (0,  -1 ) OR inetstate IS NULL ) THEN 1
            ELSE 0 END) /COUNT(*)),4) AS inetstate__Not_Valid,
    ROUND((SUM(CASE
            WHEN (wefiEngRx =wefiEngRx AND wefiEngRx IN (0,  -1 ) OR wefiEngRx IS NULL ) THEN 1 -- Received traffic size during the session by WeFi engine.
            ELSE 0 END) /COUNT(*)),4) AS wefiEngRx__Not_Valid,
    ROUND((SUM(CASE
            WHEN (wefiEngTx =wefiEngTx AND wefiEngTx IN (0,  -1 ) OR wefiEngTx IS NULL ) THEN 1 -- Transmitted traffic size during the session by WeFi engine.
            ELSE 0 END) /COUNT(*)),4) AS wefiEngTx__Not_Valid,
    ROUND((SUM(CASE
            WHEN (ssid =ssid AND ssid IS NULL ) THEN 1
            ELSE 0 END) /COUNT(*)),4) AS ssid__Not_Valid,
    ROUND((SUM(CASE
            WHEN (encType =encType AND encType IN (-1 ) OR encType IS NULL ) THEN 1
            ELSE 0 END) /COUNT(*)),4) AS encType__Not_Valid,
    ROUND((SUM(CASE
            WHEN (profileStatus =profileStatus AND profileStatus IN (0,  -1 ) OR profileStatus IS NULL ) THEN 1
            ELSE 0 END) /COUNT(*)),4) AS profileStatus__Not_Valid,
    ROUND((SUM(CASE
            WHEN (ConnectedCnr =ConnectedCnr AND ConnectedCnr IN (0,  -1 ) OR ConnectedCnr IS NULL ) THEN 1
            ELSE 0 END) /COUNT(*)),4) AS ConnectedCnr__Not_Valid,
    ROUND((SUM(CASE
            WHEN (activeMode =activeMode AND activeMode IN (0,  -1 ) OR activeMode IS NULL ) THEN 1
            ELSE 0 END) /COUNT(*)),4) AS activeMode__Not_Valid,
    ROUND((SUM(CASE
            WHEN (bw =bw AND bw IN (0,  -1) OR bw IS NULL ) THEN 1
            ELSE 0 END) /COUNT(*)),4) AS bw__Not_Valid,
    ROUND((SUM(CASE
            WHEN (BestCandidateGrade =BestCandidateGrade AND BestCandidateGrade IN (0,  -1 ) OR BestCandidateGrade IS NULL ) THEN 1
            ELSE 0 END) /COUNT(*)),4) AS BestCandidateGrade__Not_Valid,
    ROUND((SUM(CASE
            WHEN (CellId =CellId AND CellId IN (0,  -1 ) OR CellId IS NULL ) THEN 1
            ELSE 0 END) /COUNT(*)),4) AS CellId__Not_Valid,
    ROUND((SUM(CASE
            WHEN (CellLac =CellLac AND CellLac IN (0,  -1 ) OR CellLac IS NULL ) THEN 1
            ELSE 0 END) /COUNT(*)),4) AS CellLac__Not_Valid,
    ROUND((SUM(CASE
            WHEN (connectedDevices =connectedDevices AND connectedDevices IN (0,  -1 ) OR connectedDevices IS NULL ) THEN 1
            ELSE 0 END) /COUNT(*)),4) AS connected_devices__Not_Valid,
    ROUND((SUM(CASE
            WHEN (connectedGrade =connectedGrade AND connectedGrade IN (0,  -1 ) OR connectedGrade IS NULL ) THEN 1
            ELSE 0 END) /COUNT(*)),4) AS connectedGrade__Not_Valid,
    ROUND((SUM(CASE
            WHEN (ConnectionMode =ConnectionMode AND ConnectionMode IN (0,  -1 ) OR ConnectionMode IS NULL ) THEN 1
            ELSE 0 END) /COUNT(*)),4) AS ConnectionMode__Not_Valid,
    ROUND((SUM(CASE
            WHEN (ConnectionId =ConnectionId AND ConnectionId IN (0,  -1 ) OR ConnectionId IS NULL ) THEN 1
            ELSE 0 END) /COUNT(*)),4) AS ConnectionId__Not_Valid,
    ROUND((SUM(CASE
            WHEN (wAvgRxThrpt =wAvgRxThrpt AND wAvgRxThrpt IN (0,  -1 ) OR wAvgRxThrpt IS NULL ) THEN 1
            ELSE 0 END) /COUNT(*)),4) AS wAvgRxThrpt__Not_Valid,
    ROUND((SUM(CASE
            WHEN (wAvgTxThrpt =wAvgTxThrpt AND wAvgTxThrpt IN (0,  -1 ) OR wAvgTxThrpt IS NULL ) THEN 1
            ELSE 0 END) /COUNT(*)),4) AS wAvgTxThrpt__Not_Valid,
    ROUND((SUM(CASE
            WHEN (parentConnId =parentConnId AND parentConnId IN (0,  -1 ) OR parentConnId IS NULL ) THEN 1
            ELSE 0 END) /COUNT(*)),4) AS parentConnId__Not_Valid,
    ROUND((SUM(CASE
            WHEN (cellDataState =cellDataState AND cellDataState IN (0,  -1 ) OR cellDataState IS NULL ) THEN 1
            ELSE 0 END) /COUNT(*)),4) AS cellDataState__Not_Valid,
    ROUND((SUM(CASE
            WHEN (cellAround =cellAround AND cellAround IN (0,  -1 ) OR cellAround IS NULL ) THEN 1
            ELSE 0 END) /COUNT(*)),4) AS cellAround__Not_Valid,
    ROUND((SUM(CASE
            WHEN (opnNetworkId =opnNetworkId AND opnNetworkId IN (0,  -1 ) OR opnNetworkId IS NULL ) THEN 1
            ELSE 0 END) /COUNT(*)),4) AS opnNetworkId__Not_Valid,
    ROUND((SUM(CASE
            WHEN (signal =signal AND signal IN (0,  -1 ) OR signal IS NULL ) THEN 1
            ELSE 0 END) /COUNT(*)),4) AS signal__Not_Valid,
    ROUND((SUM(CASE
            WHEN (AvgSignal =AvgSignal AND AvgSignal IN (0,  -1 ) OR AvgSignal IS NULL ) THEN 1
            ELSE 0 END) /COUNT(*)),4) AS AvgSignal__Not_Valid,
    ROUND((SUM(CASE
            WHEN (minSignal =minSignal AND minSignal IN (0,  -1 ) OR minSignal IS NULL ) THEN 1
            ELSE 0 END) /COUNT(*)),4) AS minSignal__Not_Valid,
    ROUND((SUM(CASE
            WHEN (exitSignal =exitSignal AND exitSignal IN (0,  -1 ) OR exitSignal IS NULL ) THEN 1
            ELSE 0 END) /COUNT(*)),4) AS exitSignal__Not_Valid,
    ROUND((SUM(CASE
            WHEN (bestCandidateCnr =bestCandidateCnr AND bestCandidateCnr IN (0,  -1 ) OR bestCandidateCnr IS NULL ) THEN 1
            ELSE 0 END) /COUNT(*)),4) AS bestCandidateCnr__Not_Valid,
    ROUND((SUM(CASE
            WHEN (distance =distance AND distance IN (0,  -1 ) OR distance IS NULL ) THEN 1
            ELSE 0 END) /COUNT(*)),4) AS distance__Not_Valid,
    ROUND((SUM(CASE
            WHEN (networkType =networkType AND networkType IN (0,  -1 ) OR networkType IS NULL ) THEN 1
            ELSE 0 END) /COUNT(*)),4) AS networkType__Not_Valid,
    ROUND((SUM(CASE
            WHEN (groupId =groupId AND groupId IN (0,  -1 ) OR groupId IS NULL ) THEN 1
            ELSE 0 END) /COUNT(*)),4) AS groupId__Not_Valid,
    ROUND((SUM(CASE
            WHEN (msSinceStart =msSinceStart AND msSinceStart IN (0,  -1 ) OR msSinceStart IS NULL ) THEN 1
            ELSE 0 END) /COUNT(*)),4) AS msSinceStart__Not_Valid,
    ROUND((SUM(CASE
            WHEN (bestCandidateType =bestCandidateType AND bestCandidateType IN (0,  -1 ) OR bestCandidateType IS NULL ) THEN 1
            ELSE 0 END) /COUNT(*)),4) AS bestCandidateType__Not_Valid,
    ROUND((SUM(CASE
            WHEN (PLMN =PLMN AND PLMN IN (0,  -1 ) OR PLMN IS NULL ) THEN 1
            ELSE 0 END) /COUNT(*)),4) AS PLMN__Not_Valid,
    ROUND((SUM(CASE
            WHEN (affinityType =affinityType AND affinityType IN (0,  -1 ) OR affinityType IS NULL ) THEN 1
            ELSE 0 END) /COUNT(*)),4) AS affinityType__Not_Valid,
    ROUND((SUM(CASE
            WHEN (domainId =domainId AND domainId IN (0,  -1 ) OR domainId IS NULL ) THEN 1
            ELSE 0 END) /COUNT(*)),4) AS domainId__Not_Valid,
    ROUND((SUM(CASE
            WHEN (osMajor =osMajor AND osMajor IN (0,  -1 ) OR osMajor IS NULL ) THEN 1
            ELSE 0 END) /COUNT(*)),4) AS osMajor__Not_Valid,
    ROUND((SUM(CASE
            WHEN (osminor =osminor AND osminor IN (-1 ) OR osminor IS NULL ) THEN 1
            ELSE 0 END) /COUNT(*)),4) AS osminor__Not_Valid,
    ROUND((SUM(CASE
            WHEN (osBuild =osBuild AND osBuild IN (0,  -1 ) OR osBuild IS NULL ) THEN 1
            ELSE 0 END) /COUNT(*)),4) AS osBuild__Not_Valid,
    ROUND((SUM(CASE
            WHEN (batteryPercentBegin =batteryPercentBegin AND batteryPercentBegin IN (0,  -1 ) OR batteryPercentBegin IS NULL ) THEN 1
            ELSE 0 END) /COUNT(*)),4) AS batteryPercentBegin__Not_Valid,
    ROUND((SUM(CASE
            WHEN (batteryPercentEnd =batteryPercentEnd AND batteryPercentEnd IN (0,  -1 ) OR batteryPercentEnd IS NULL ) THEN 1
            ELSE 0 END) /COUNT(*)),4) AS batteryPercentEnd__Not_Valid,
    ROUND((SUM(CASE
            WHEN (batteryCharge =batteryCharge AND batteryCharge IN (0,  -1 ) OR batteryCharge IS NULL ) THEN 1
            ELSE 0 END) /COUNT(*)),4) AS batteryCharge__Not_Valid,
    ROUND((SUM(CASE
            WHEN (startLinkSpeed =startLinkSpeed AND startLinkSpeed IN (0,  -1 ) OR startLinkSpeed IS NULL ) THEN 1
            ELSE 0 END) /COUNT(*)),4) AS startLinkSpeed__Not_Valid,
    ROUND((SUM(CASE
            WHEN (exitLinkSpeed =exitLinkSpeed AND exitLinkSpeed IN (0,  -1 ) OR exitLinkSpeed IS NULL ) THEN 1
            ELSE 0 END) /COUNT(*)),4) AS exitLinkSpeed__Not_Valid,
    ROUND((SUM(CASE
            WHEN (minLinkSpeed =minLinkSpeed AND minLinkSpeed IN (0,  -1 ) OR minLinkSpeed IS NULL ) THEN 1
            ELSE 0 END) /COUNT(*)),4) AS minLinkSpeed__Not_Valid,
    ROUND((SUM(CASE
            WHEN (apn =apn AND apn IS NULL ) THEN 1
            ELSE 0 END) /COUNT(*)),4) AS apn__Not_Valid,
    ROUND((SUM(CASE
            WHEN (wifiFrequency =wifiFrequency AND wifiFrequency IN (0,  -1 ) OR wifiFrequency IS NULL ) THEN 1
            ELSE 0 END) /COUNT(*)),4) AS wifiFrequency__Not_Valid,
    CONCAT("<Histogram",">") AS Histogram /*************************/ /* Histogram*/,
    SUM(CASE
        WHEN (sessionDuration <-1) THEN 1
        ELSE 0 END) /COUNT(*) AS DurationMinus,
    SUM(CASE
        WHEN (sessionDuration =-1) THEN 1
        ELSE 0 END) /COUNT(*) AS DurationMinus1,
    SUM(CASE
        WHEN (sessionDuration =0) THEN 1
        ELSE 0 END) /COUNT(*) AS DurationZero,
    SUM(CASE
        WHEN (sessionDuration >0 AND sessionDuration<=100) THEN 1
        ELSE 0 END) /COUNT(*) AS DurationUp100ms,
    SUM(CASE
        WHEN (sessionDuration >100 AND sessionDuration<=15000) THEN 1
        ELSE 0 END) /COUNT(*) AS DurationUp15Sec,
    SUM(CASE
        WHEN (sessionDuration >15000 AND sessionDuration<=30000) THEN 1
        ELSE 0 END) /COUNT(*) AS DurationUp30Sec,
    SUM(CASE
        WHEN (sessionDuration >30000 AND sessionDuration<=86400000) THEN 1
        ELSE 0 END) /COUNT(*) AS DurationUp1Day,
    SUM(CASE
        WHEN (sessionDuration >86400000) THEN 1
        ELSE 0 END) /COUNT(*) AS DurationMoreThan1Day,
    SUM(CASE
        WHEN (sessionType < 0 ) THEN 1
        ELSE 0 END) /COUNT(*) AS sessionTypeNeg,
    SUM(CASE
        WHEN (sessionType = 0 ) THEN 1
        ELSE 0 END) /COUNT(*) AS sessionType0,
    SUM(CASE
        WHEN (sessionType = 1 ) THEN 1
        ELSE 0 END) /COUNT(*) AS sessionType1,
    SUM(CASE
        WHEN (sessionType = 2 ) THEN 1
        ELSE 0 END) /COUNT(*) AS sessionType2,
    SUM(CASE
        WHEN (sessionType = 3 ) THEN 1
        ELSE 0 END) /COUNT(*) AS sessionType3,
    SUM(CASE
        WHEN (sessionType = 4 ) THEN 1
        ELSE 0 END) /COUNT(*) AS sessionType4,
    SUM(CASE
        WHEN (sessionType = 5 ) THEN 1
        ELSE 0 END) /COUNT(*) AS sessionType5,
    SUM(CASE
        WHEN (sessionType = 6 ) THEN 1
        ELSE 0 END) /COUNT(*) AS sessionType6,
    SUM(CASE
        WHEN (sessionType = 7 ) THEN 1
        ELSE 0 END) /COUNT(*) AS sessionType7,
    SUM(CASE
        WHEN (sessionType = 8 ) THEN 1
        ELSE 0 END) /COUNT(*) AS sessionType8,
    SUM(CASE
        WHEN (sessionType = 9 ) THEN 1
        ELSE 0 END) /COUNT(*) AS sessionType9,
    SUM(CASE
        WHEN (sessionType = 10 ) THEN 1
        ELSE 0 END) /COUNT(*) AS sessionType10,
    SUM(CASE
        WHEN (sessionType = 11) THEN 1
        ELSE 0 END) /COUNT(*) AS sessionType11,
    SUM(CASE
        WHEN (sessionType = 20) THEN 1
        ELSE 0 END) /COUNT(*) AS sessionType20,
    SUM(CASE
        WHEN (sessionType = 21) THEN 1
        ELSE 0 END) /COUNT(*) AS sessionType21,
    SUM(CASE
        WHEN (sessionType = 22) THEN 1
        ELSE 0 END) /COUNT(*) AS sessionType22,
    SUM(CASE
        WHEN (sessionType = 23) THEN 1
        ELSE 0 END) /COUNT(*) AS sessionType23,
    SUM(CASE
        WHEN (((sessionType > 11) AND (sessionType < 20)) OR (sessionType>23)) THEN 1
        ELSE 0 END) /COUNT(*) AS sessionTypeInvalid,
    SUM(CASE
        WHEN (candidateWifiNetworks <0) THEN 1
        ELSE 0 END) /COUNT(*) AS candidateWifiNetworksNeg,
    SUM(CASE
        WHEN (candidateWifiNetworks =0) THEN 1
        ELSE 0 END) /COUNT(*) AS candidateWifiNetworksZero,
    SUM(CASE
        WHEN (candidateWifiNetworks =1) THEN 1
        ELSE 0 END) /COUNT(*) AS candidateWifiNetworks1,
    SUM(CASE
        WHEN (candidateWifiNetworks =2) THEN 1
        ELSE 0 END) /COUNT(*) AS candidateWifiNetworks2,
    SUM(CASE
        WHEN (candidateWifiNetworks =3) THEN 1
        ELSE 0 END) /COUNT(*) AS candidateWifiNetworks3,
    SUM(CASE
        WHEN ((candidateWifiNetworks >3) AND (candidateWifiNetworks <10)) THEN 1
        ELSE 0 END) /COUNT(*) AS candidateWifiNetworks4_to_9,
    SUM(CASE
        WHEN ((candidateWifiNetworks >=10) AND (candidateWifiNetworks <20)) THEN 1
        ELSE 0 END) /COUNT(*) AS candidateWifiNetworks10_to_19,
    SUM(CASE
        WHEN ((candidateWifiNetworks >=20) AND (candidateWifiNetworks <50)) THEN 1
        ELSE 0 END) /COUNT(*) AS candidateWifiNetworks20_to_49,
    SUM(CASE
        WHEN ((candidateWifiNetworks >=50) AND (candidateWifiNetworks <127)) THEN 1
        ELSE 0 END) /COUNT(*) AS candidateWifiNetworks50_to_126,
    SUM(CASE
        WHEN ((candidateWifiNetworks >=127)) THEN 1
        ELSE 0 END) /COUNT(*) AS candidateWifiNetworks127plus,
    SUM(CASE
        WHEN (crashState <0) THEN 1
        ELSE 0 END) /COUNT(*) AS crashStateNeg,
    SUM(CASE
        WHEN (crashState =0) THEN 1
        ELSE 0 END) /COUNT(*) AS crashStateZero,
    SUM(CASE
        WHEN (crashState =1) THEN 1
        ELSE 0 END) /COUNT(*) AS crashState1,
    SUM(CASE
        WHEN (crashState =2) THEN 1
        ELSE 0 END) /COUNT(*) AS crashState2,
    SUM(CASE
        WHEN (crashState =3) THEN 1
        ELSE 0 END) /COUNT(*) AS crashState3,
    SUM(CASE
        WHEN (crashState =4) THEN 1
        ELSE 0 END) /COUNT(*) AS crashState4,
    SUM(CASE
        WHEN (crashState >4) THEN 1
        ELSE 0 END) /COUNT(*) AS crashStateMoreThan4,
    SUM(CASE
        WHEN (lat=0) THEN 1
        ELSE 0 END) /COUNT(*) AS latZero,
    SUM(CASE
        WHEN (lat=-1) THEN 1
        ELSE 0 END) /COUNT(*) AS latMinus1,
    SUM(CASE
        WHEN (lat=-180) THEN 1
        ELSE 0 END) /COUNT(*) AS latMinus180,
    SUM(CASE
        WHEN (lat=180) THEN 1
        ELSE 0 END) /COUNT(*) AS lat180,
    SUM(CASE
        WHEN (lat>-180) AND (lat<180) AND (lat!=0) AND (lat!=-1) THEN 1
        ELSE 0 END) /COUNT(*) AS latValid,
    SUM(CASE
        WHEN (longt=0) THEN 1
        ELSE 0 END) /COUNT(*) AS longtZero,
    SUM(CASE
        WHEN (longt=-1) THEN 1
        ELSE 0 END) /COUNT(*) AS longtMinus1,
    SUM(CASE
        WHEN (longt=-180) THEN 1
        ELSE 0 END) /COUNT(*) AS longtMinus180,
    SUM(CASE
        WHEN (longt=180) THEN 1
        ELSE 0 END) /COUNT(*) AS longt180,
    SUM(CASE
        WHEN (longt>-180) AND (longt<180) AND (longt!=0) AND (longt!=-1) THEN 1
        ELSE 0 END) /COUNT(*) AS longtValid,
    SUM(CASE
        WHEN (accuracy=-1) THEN 1
        ELSE 0 END) /COUNT(*) AS accuracyMinus1,
    SUM(CASE
        WHEN (accuracy=0) THEN 1
        ELSE 0 END) /COUNT(*) AS accuracyZero,
    SUM(CASE
        WHEN (accuracy>0) AND (accuracy<100) THEN 1
        ELSE 0 END) /COUNT(*) AS accuracyTill100,
    SUM(CASE
        WHEN (accuracy>=100) AND (accuracy<1000) THEN 1
        ELSE 0 END) /COUNT(*) AS accuracyTill1000,
    SUM(CASE
        WHEN (accuracy>=1000) AND (accuracy<10000) THEN 1
        ELSE 0 END) /COUNT(*) AS accuracyTill10000,
    SUM(CASE
        WHEN (accuracy>=10000) THEN 1
        ELSE 0 END) /COUNT(*) AS accuracyMoreThan10000,
    SUM(CASE
        WHEN (msSinceStart=-1) THEN 1
        ELSE 0 END) /COUNT(*) AS msSinceStartMinus1,
    SUM(CASE
        WHEN (msSinceStart=0) THEN 1
        ELSE 0 END) /COUNT(*) AS msSinceStartZero,
    SUM(CASE
        WHEN (msSinceStart<-1) AND (msSinceStart>-3600000) THEN 1
        ELSE 0 END) /COUNT(*) AS msSinceStart1HourBefore,
    SUM(CASE
        WHEN (msSinceStart<=-3600000) AND (msSinceStart>-86400000) THEN 1
        ELSE 0 END) /COUNT(*) AS msSinceStartlast1Day,
    SUM(CASE
        WHEN (msSinceStart<=-86400000) THEN 1
        ELSE 0 END) /COUNT(*) AS msSinceStartMoreThanDayBefore,
    SUM(CASE
        WHEN (msSinceStart>0) AND (msSinceStart<3600000) THEN 1
        ELSE 0 END) /COUNT(*) AS msSinceStart1HourAfter,
    SUM(CASE
        WHEN (msSinceStart>=3600000) AND (msSinceStart<86400000) THEN 1
        ELSE 0 END) /COUNT(*) AS msSinceStart1DayAfter,
    SUM(CASE
        WHEN msSinceStart>=86400000 THEN 1
        ELSE 0 END) /COUNT(*) AS msSinceStartMoreThanDayAfter,
    SUM(CASE
        WHEN (pkg="null") THEN 1
        ELSE 0 END) /COUNT(*) AS pkgNull,
    SUM(CASE
        WHEN (pkg!="null") THEN 1
        ELSE 0 END) /COUNT(*) AS pkgNotNull,
    SUM(CASE
        WHEN (appVer=-1) OR (appVer=0) THEN 1
        ELSE 0 END) /COUNT(*) AS appVerMinus1Zero,
    SUM(CASE
        WHEN (appVer>0) THEN 1
        ELSE 0 END) /COUNT(*) AS appVerPos,
    SUM(CASE
        WHEN (rx<-1) THEN 1
        ELSE 0 END) /COUNT(*) AS rxNegative,
    SUM(CASE
        WHEN (rx=-1) THEN 1
        ELSE 0 END) /COUNT(*) AS rxMinus1,
    SUM(CASE
        WHEN (rx=0) THEN 1
        ELSE 0 END) /COUNT(*) AS rxZero,
    SUM(CASE
        WHEN (rx>0) AND (rx<1000) THEN 1
        ELSE 0 END) /COUNT(*) AS rxUpTo1KB,
    SUM(CASE
        WHEN (rx>=1000) AND (rx<1000000) THEN 1
        ELSE 0 END) /COUNT(*) AS rxUpTo1MB,
    SUM(CASE
        WHEN (rx>=1000000) AND (rx<1000000000) THEN 1
        ELSE 0 END) /COUNT(*) AS rxUpTo1GB,
    SUM(CASE
        WHEN (rx>=1000000000) AND (rx<100000000000) THEN 1
        ELSE 0 END) /COUNT(*) AS rxUpTo100GB,
    SUM(CASE
        WHEN (rx>=100000000000) THEN 1
        ELSE 0 END) /COUNT(*) AS rxMoreThan100GB,
    SUM(CASE
        WHEN (tx<-1) THEN 1
        ELSE 0 END) /COUNT(*) AS txNegative,
    SUM(CASE
        WHEN (tx=-1) THEN 1
        ELSE 0 END) /COUNT(*) AS txMinus1,
    SUM(CASE
        WHEN (tx=0) THEN 1
        ELSE 0 END) /COUNT(*) AS txZero,
    SUM(CASE
        WHEN (tx>0) AND (tx<1000) THEN 1
        ELSE 0 END) /COUNT(*) AS txUpTo1KB,
    SUM(CASE
        WHEN (tx>=1000) AND (tx<1000000) THEN 1
        ELSE 0 END) /COUNT(*) AS txUpTo1MB,
    SUM(CASE
        WHEN (tx>=1000000) AND (tx<1000000000) THEN 1
        ELSE 0 END) /COUNT(*) AS txUpTo1GB,
    SUM(CASE
        WHEN (tx>=1000000000) AND (tx<100000000000) THEN 1
        ELSE 0 END) /COUNT(*) AS txUpTo100GB,
    SUM(CASE
        WHEN (tx>=100000000000) THEN 1
        ELSE 0 END) /COUNT(*) AS txMoreThan100GB,
    SUM(CASE
        WHEN (wefiRx<-1) THEN 1
        ELSE 0 END) /COUNT(*) AS wefiRxNegative,
    SUM(CASE
        WHEN (wefiRx=-1) THEN 1
        ELSE 0 END) /COUNT(*) AS wefiRxMinus1,
    SUM(CASE
        WHEN (wefiRx=0) THEN 1
        ELSE 0 END) /COUNT(*) AS wefiRxZero,
    SUM(CASE
        WHEN (wefiRx>0) AND (wefiRx<1000) THEN 1
        ELSE 0 END) /COUNT(*) AS wefiRxUpTo1KB,
    SUM(CASE
        WHEN (wefiRx>=1000) AND (wefiRx<1000000) THEN 1
        ELSE 0 END) /COUNT(*) AS wefiRxUpTo1MB,
    SUM(CASE
        WHEN (wefiRx>=1000000) AND (wefiRx<10000000) THEN 1
        ELSE 0 END) /COUNT(*) AS wefiRxUpTo10MB,
    SUM(CASE
        WHEN (wefiRx>=10000000) AND (wefiRx<100000000) THEN 1
        ELSE 0 END) /COUNT(*) AS wefiRxUpTo100MB,
    SUM(CASE
        WHEN (wefiRx>=100000000) THEN 1
        ELSE 0 END) /COUNT(*) AS wefiRxMoreThan100MB,
    SUM(CASE
        WHEN (wefiTx<-1) THEN 1
        ELSE 0 END) /COUNT(*) AS wefiTxNegative,
    SUM(CASE
        WHEN (wefiTx=-1) THEN 1
        ELSE 0 END) /COUNT(*) AS wefiTxMinus1,
    SUM(CASE
        WHEN (wefiTx=0) THEN 1
        ELSE 0 END) /COUNT(*) AS wefiTxZero,
    SUM(CASE
        WHEN (wefiTx>0) AND (wefiTx<1000) THEN 1
        ELSE 0 END) /COUNT(*) AS wefiTxUpTo1KB,
    SUM(CASE
        WHEN (wefiTx>=1000) AND (wefiTx<1000000) THEN 1
        ELSE 0 END) /COUNT(*) AS wefiTxUpTo1MB,
    SUM(CASE
        WHEN (wefiTx>=1000000) AND (wefiTx<10000000) THEN 1
        ELSE 0 END) /COUNT(*) AS wefiTxUpTo10MB,
    SUM(CASE
        WHEN (wefiTx>=10000000) AND (wefiTx<100000000) THEN 1
        ELSE 0 END) /COUNT(*) AS wefiTxUpTo100MB,
    SUM(CASE
        WHEN (wefiTx>=100000000) THEN 1
        ELSE 0 END) /COUNT(*) AS wefiTxMoreThan100MB,
    SUM(CASE
        WHEN (maxRxThrpt<-1) THEN 1
        ELSE 0 END) /COUNT(*) AS maxRxThrptNegative,
    SUM(CASE
        WHEN (maxRxThrpt=-1) THEN 1
        ELSE 0 END) /COUNT(*) AS maxRxThrptMinus1,
    SUM(CASE
        WHEN (maxRxThrpt=0) THEN 1
        ELSE 0 END) /COUNT(*) AS maxRxThrptZero,
    SUM(CASE
        WHEN (maxRxThrpt>0) AND (maxRxThrpt<1000) THEN 1
        ELSE 0 END) /COUNT(*) AS maxRxThrptUpTo1Kbps,
    SUM(CASE
        WHEN (maxRxThrpt>=1000) AND (maxRxThrpt<1000000) THEN 1
        ELSE 0 END) /COUNT(*) AS maxRxThrptUpTo1Mbps,
    SUM(CASE
        WHEN (maxRxThrpt>=1000000) AND (maxRxThrpt<10000000) THEN 1
        ELSE 0 END) /COUNT(*) AS maxRxThrptUpTo10Mbps,
    SUM(CASE
        WHEN (maxRxThrpt>=10000000) AND (maxRxThrpt<100000000) THEN 1
        ELSE 0 END) /COUNT(*) AS maxRxThrptUpTo100Mbps,
    SUM(CASE
        WHEN (maxRxThrpt>=100000000) THEN 1
        ELSE 0 END) /COUNT(*) AS maxRxThrptMoreThan100Mbps,
    SUM(CASE
        WHEN (maxTxThrpt<-1) THEN 1
        ELSE 0 END) /COUNT(*) AS maxTxThrptNegative,
    SUM(CASE
        WHEN (maxTxThrpt=-1) THEN 1
        ELSE 0 END) /COUNT(*) AS maxTxThrptMinus1,
    SUM(CASE
        WHEN (maxTxThrpt=0) THEN 1
        ELSE 0 END) /COUNT(*) AS maxTxThrptZero,
    SUM(CASE
        WHEN (maxTxThrpt>0) AND (maxTxThrpt<1000) THEN 1
        ELSE 0 END) /COUNT(*) AS maxTxThrptUpTo1Kbps,
    SUM(CASE
        WHEN (maxTxThrpt>=1000) AND (maxTxThrpt<1000000) THEN 1
        ELSE 0 END) /COUNT(*) AS maxTxThrptUpTo1Mbps,
    SUM(CASE
        WHEN (maxTxThrpt>=1000000) AND (maxTxThrpt<10000000) THEN 1
        ELSE 0 END) /COUNT(*) AS maxTxThrptUpTo10Mbps,
    SUM(CASE
        WHEN (maxTxThrpt>=10000000) AND (maxTxThrpt<100000000) THEN 1
        ELSE 0 END) /COUNT(*) AS maxTxThrptUpTo100Mbps,
    SUM(CASE
        WHEN (maxTxThrpt>=100000000) THEN 1
        ELSE 0 END) /COUNT(*) AS maxTxThrptMoreThan100Mbps,
    SUM(CASE
        WHEN (wAvgRxThrpt<-1) THEN 1
        ELSE 0 END) /COUNT(*) AS wAvgRxThrptNegative,
    SUM(CASE
        WHEN (wAvgRxThrpt=-1) THEN 1
        ELSE 0 END) /COUNT(*) AS wAvgRxThrptMinus1,
    SUM(CASE
        WHEN (wAvgRxThrpt=0) THEN 1
        ELSE 0 END) /COUNT(*) AS wAvgRxThrptZero,
    SUM(CASE
        WHEN (wAvgRxThrpt>0) AND (wAvgRxThrpt<1000) THEN 1
        ELSE 0 END) /COUNT(*) AS wAvgRxThrptUpTo1Kbps,
    SUM(CASE
        WHEN (wAvgRxThrpt>=1000) AND (wAvgRxThrpt<1000000) THEN 1
        ELSE 0 END) /COUNT(*) AS wAvgRxThrptUpTo1Mbps,
    SUM(CASE
        WHEN (wAvgRxThrpt>=1000000) AND (wAvgRxThrpt<10000000) THEN 1
        ELSE 0 END) /COUNT(*) AS wAvgRxThrptUpTo10Mbps,
    SUM(CASE
        WHEN (wAvgRxThrpt>=10000000) AND (wAvgRxThrpt<100000000) THEN 1
        ELSE 0 END) /COUNT(*) AS wAvgRxThrptUpTo100Mbps,
    SUM(CASE
        WHEN (wAvgRxThrpt>=100000000) THEN 1
        ELSE 0 END) /COUNT(*) AS wAvgRxThrptMoreThan100Mbps,
    SUM(CASE
        WHEN (wAvgTxThrpt<-1) THEN 1
        ELSE 0 END) /COUNT(*) AS wAvgTxThrptNegative,
    SUM(CASE
        WHEN (wAvgTxThrpt=-1) THEN 1
        ELSE 0 END) /COUNT(*) AS wAvgTxThrptMinus1,
    SUM(CASE
        WHEN (wAvgTxThrpt=0) THEN 1
        ELSE 0 END) /COUNT(*) AS wAvgTxThrptZero,
    SUM(CASE
        WHEN (wAvgTxThrpt>0) AND (wAvgTxThrpt<1000) THEN 1
        ELSE 0 END) /COUNT(*) AS wAvgTxThrptUpTo1Kbps,
    SUM(CASE
        WHEN (wAvgTxThrpt>=1000) AND (wAvgTxThrpt<1000000) THEN 1
        ELSE 0 END) /COUNT(*) AS wAvgTxThrptUpTo1Mbps,
    SUM(CASE
        WHEN (wAvgTxThrpt>=1000000) AND (wAvgTxThrpt<10000000) THEN 1
        ELSE 0 END) /COUNT(*) AS wAvgTxThrptUpTo10Mbps,
    SUM(CASE
        WHEN (wAvgTxThrpt>=10000000) AND (wAvgTxThrpt<100000000) THEN 1
        ELSE 0 END) /COUNT(*) AS wAvgTxThrptUpTo100Mbps,
    SUM(CASE
        WHEN (wAvgTxThrpt>=100000000) THEN 1
        ELSE 0 END) /COUNT(*) AS wAvgTxThrptMoreThan100Mbps,
    SUM(CASE
        WHEN (disconnectReason < 0 ) THEN 1
        ELSE 0 END) /COUNT(*) AS disconnectReasonNeg,
    SUM(CASE
        WHEN (disconnectReason = 0 ) THEN 1
        ELSE 0 END) /COUNT(*) AS disconnectReason0,
    SUM(CASE
        WHEN (disconnectReason = 1 ) THEN 1
        ELSE 0 END) /COUNT(*) AS disconnectReason1,
    SUM(CASE
        WHEN (disconnectReason = 2 ) THEN 1
        ELSE 0 END) /COUNT(*) AS disconnectReason2,
    SUM(CASE
        WHEN (disconnectReason = 3 ) THEN 1
        ELSE 0 END) /COUNT(*) AS disconnectReason3,
    SUM(CASE
        WHEN (disconnectReason = 4 ) THEN 1
        ELSE 0 END) /COUNT(*) AS disconnectReason4,
    SUM(CASE
        WHEN (disconnectReason = 5 ) THEN 1
        ELSE 0 END) /COUNT(*) AS disconnectReason5,
    SUM(CASE
        WHEN (disconnectReason = 6 ) THEN 1
        ELSE 0 END) /COUNT(*) AS disconnectReasonn6,
    SUM(CASE
        WHEN (disconnectReason = 7 ) THEN 1
        ELSE 0 END) /COUNT(*) AS disconnectReason7,
    SUM(CASE
        WHEN (disconnectReason = 8 ) THEN 1
        ELSE 0 END) /COUNT(*) AS disconnectReason8,
    SUM(CASE
        WHEN (disconnectReason = 9 ) THEN 1
        ELSE 0 END) /COUNT(*) AS disconnectReason9,
    SUM(CASE
        WHEN (disconnectReason = 10 ) THEN 1
        ELSE 0 END) /COUNT(*) AS disconnectReason10,
    SUM(CASE
        WHEN (disconnectReason = 11) THEN 1
        ELSE 0 END) /COUNT(*) AS disconnectReason11,
    SUM(CASE
        WHEN (disconnectReason = 12) THEN 1
        ELSE 0 END) /COUNT(*) AS disconnectReason12,
    SUM(CASE
        WHEN (disconnectReason = 13) THEN 1
        ELSE 0 END) /COUNT(*) AS disconnectReason13,
    SUM(CASE
        WHEN (disconnectReason = 14) THEN 1
        ELSE 0 END) /COUNT(*) AS disconnectReason14,
    SUM(CASE
        WHEN (disconnectReason = 19) THEN 1
        ELSE 0 END) /COUNT(*) AS disconnectReason19,
    SUM(CASE
        WHEN (disconnectReason = 20) THEN 1
        ELSE 0 END) /COUNT(*) AS disconnectReason20,
    SUM(CASE
        WHEN (disconnectReason = 21) THEN 1
        ELSE 0 END) /COUNT(*) AS disconnectReason21,
    SUM(CASE
        WHEN (disconnectReason = 22) THEN 1
        ELSE 0 END) /COUNT(*) AS disconnectReason22,
    SUM(CASE
        WHEN (disconnectReason > 22) THEN 1
        ELSE 0 END) /COUNT(*) AS disconnectReasonGreaterThan22,
    SUM(CASE
        WHEN (latency= -1) THEN 1
        ELSE 0 END) /COUNT(*) AS latencyMinus1,
    SUM(CASE
        WHEN (latency= 0) THEN 1
        ELSE 0 END) /COUNT(*) AS latencyZero,
    SUM(CASE
        WHEN (latency> 0) AND (latency< 1000) THEN 1
        ELSE 0 END) /COUNT(*) AS latencyUpTo1Sec,
    SUM(CASE
        WHEN (latency>= 1000) AND (latency< 2000) THEN 1
        ELSE 0 END) /COUNT(*) AS latencyUpTo2Sec,
    SUM(CASE
        WHEN (latency>= 2000) AND (latency< 5000) THEN 1
        ELSE 0 END) /COUNT(*) AS latencyUpTo5Sec,
    SUM(CASE
        WHEN (latency>= 5000) AND (latency< 10000) THEN 1
        ELSE 0 END) /COUNT(*) AS latencyUpTo10Sec,
    SUM(CASE
        WHEN (latency>= 10000) AND (latency< 60000) THEN 1
        ELSE 0 END) /COUNT(*) AS latencyUpTo1Min,
    SUM(CASE
        WHEN (latency>= 60000) THEN 1
        ELSE 0 END) /COUNT(*) AS latencyMoreThan1Min,
    SUM(CASE
        WHEN (wAvgLatency= -1) THEN 1
        ELSE 0 END) /COUNT(*) AS wAvglatencyMinus1,
    SUM(CASE
        WHEN (wAvgLatency= 0) THEN 1
        ELSE 0 END) /COUNT(*) AS wAvglatencyZero,
    SUM(CASE
        WHEN (wAvgLatency> 0) AND (wAvgLatency< 1000) THEN 1
        ELSE 0 END) /COUNT(*) AS wAvglatencyUpTo1Sec,
    SUM(CASE
        WHEN (wAvgLatency>= 1000) AND (wAvgLatency< 2000) THEN 1
        ELSE 0 END) /COUNT(*) AS wAvglatencyUpTo2Sec,
    SUM(CASE
        WHEN (wAvgLatency>= 2000) AND (wAvgLatency< 5000) THEN 1
        ELSE 0 END) /COUNT(*) AS wAvglatencyUpTo5Sec,
    SUM(CASE
        WHEN (wAvgLatency>= 5000) AND (wAvgLatency< 10000) THEN 1
        ELSE 0 END) /COUNT(*) AS wAvglatencyUpTo10Sec,
    SUM(CASE
        WHEN (wAvgLatency>= 10000) AND (wAvgLatency< 60000) THEN 1
        ELSE 0 END) /COUNT(*) AS wAvglatencyUpTo1Min,
    SUM(CASE
        WHEN (wAvgLatency>= 60000) THEN 1
        ELSE 0 END) /COUNT(*) AS wAvglatencyMoreThan1Min,
    SUM(CASE
        WHEN (signal<=-120) THEN 1
        ELSE 0 END) /COUNT(*) AS signalMinus120AndBelow,
    SUM(CASE
        WHEN (signal<-113) AND (signal>-120) THEN 1
        ELSE 0 END) /COUNT(*) AS signalBetween113And120,
    SUM(CASE
        WHEN (signal=-113) THEN 1
        ELSE 0 END) /COUNT(*) AS signalMinu113,
    SUM(CASE
        WHEN (signal<-90) AND (signal>-113) THEN 1
        ELSE 0 END) /COUNT(*) AS signalBetween113And90,
    SUM(CASE
        WHEN (signal<-80) AND (signal>=-90) THEN 1
        ELSE 0 END) /COUNT(*) AS signalBetween90And80,
    SUM(CASE
        WHEN (signal<-70) AND (signal>=-80) THEN 1
        ELSE 0 END) /COUNT(*) AS signalBetween80And70,
    SUM(CASE
        WHEN (signal<-60) AND (signal>=-70) THEN 1
        ELSE 0 END) /COUNT(*) AS signalBetween70And60,
    SUM(CASE
        WHEN (signal<-50) AND (signal>=-60) THEN 1
        ELSE 0 END) /COUNT(*) AS signalBetween60And50,
    SUM(CASE
        WHEN (signal<-40) AND (signal>=-50) THEN 1
        ELSE 0 END) /COUNT(*) AS signalBetween50And40,
    SUM(CASE
        WHEN (signal<-30) AND (signal>=-40) THEN 1
        ELSE 0 END) /COUNT(*) AS signalBetween40And30,
    SUM(CASE
        WHEN (signal<-20) AND (signal>=-30) THEN 1
        ELSE 0 END) /COUNT(*) AS signalBetween30And20,
    SUM(CASE
        WHEN (signal<-1) AND (signal>=-20) THEN 1
        ELSE 0 END) /COUNT(*) AS signalBetween20And1,
    SUM(CASE
        WHEN (signal=-1) THEN 1
        ELSE 0 END) /COUNT(*) AS signalMinus1,
    SUM(CASE
        WHEN (signal= 0) THEN 1
        ELSE 0 END) /COUNT(*) AS signalMinus0,
    SUM(CASE
        WHEN (signal> 0) THEN 1
        ELSE 0 END) /COUNT(*) AS signalMinusPos,
    SUM(CASE
        WHEN (minsignal<=-120) THEN 1
        ELSE 0 END) /COUNT(*) AS minSignalMinus120AndBelow,
    SUM(CASE
        WHEN (minsignal<-113) AND (minsignal>-120) THEN 1
        ELSE 0 END) /COUNT(*) AS minSignalBetween113And120,
    SUM(CASE
        WHEN (minsignal=-113) THEN 1
        ELSE 0 END) /COUNT(*) AS minSignalMinu113,
    SUM(CASE
        WHEN (minsignal<-90) AND (minsignal>-113) THEN 1
        ELSE 0 END) /COUNT(*) AS minSignalBetween113And90,
    SUM(CASE
        WHEN (minsignal<-80) AND (minsignal>=-90) THEN 1
        ELSE 0 END) /COUNT(*) AS minSignalBetween90And80,
    SUM(CASE
        WHEN (minsignal<-70) AND (minsignal>=-80) THEN 1
        ELSE 0 END) /COUNT(*) AS minSignalBetween80And70,
    SUM(CASE
        WHEN (minsignal<-60) AND (minsignal>=-70) THEN 1
        ELSE 0 END) /COUNT(*) AS minSignalBetween70And60,
    SUM(CASE
        WHEN (minsignal<-50) AND (minsignal>=-60) THEN 1
        ELSE 0 END) /COUNT(*) AS minSignalBetween60And50,
    SUM(CASE
        WHEN (minsignal<-40) AND (minsignal>=-50) THEN 1
        ELSE 0 END) /COUNT(*) AS minSignalBetween50And40,
    SUM(CASE
        WHEN (minsignal<-30) AND (minsignal>=-40) THEN 1
        ELSE 0 END) /COUNT(*) AS minSignalBetween40And30,
    SUM(CASE
        WHEN (minsignal<-20) AND (minsignal>=-30) THEN 1
        ELSE 0 END) /COUNT(*) AS minSignalBetween30And20,
    SUM(CASE
        WHEN (minsignal<-1) AND (minsignal>=-20) THEN 1
        ELSE 0 END) /COUNT(*) AS minSignalBetween20And1,
    SUM(CASE
        WHEN (minsignal=-1) THEN 1
        ELSE 0 END) /COUNT(*) AS minSignalMinus1,
    SUM(CASE
        WHEN (minsignal= 0) THEN 1
        ELSE 0 END) /COUNT(*) AS minSignalMinus0,
    SUM(CASE
        WHEN (minsignal> 0) THEN 1
        ELSE 0 END) /COUNT(*) AS minSignalMinusPos,
    SUM(CASE
        WHEN (avgsignal<=-120) THEN 1
        ELSE 0 END) /COUNT(*) AS avgSignalMinus120AndBelow,
    SUM(CASE
        WHEN (avgsignal<-113) AND (avgsignal>-120) THEN 1
        ELSE 0 END) /COUNT(*) AS avgSignalBetween113And120,
    SUM(CASE
        WHEN (avgsignal=-113) THEN 1
        ELSE 0 END) /COUNT(*) AS avgSignalMinu113,
    SUM(CASE
        WHEN (avgsignal<-90) AND (avgsignal>-113) THEN 1
        ELSE 0 END) /COUNT(*) AS avgSignalBetween113And90,
    SUM(CASE
        WHEN (avgsignal<-80) AND (avgsignal>=-90) THEN 1
        ELSE 0 END) /COUNT(*) AS avgSignalBetween90And80,
    SUM(CASE
        WHEN (avgsignal<-70) AND (avgsignal>=-80) THEN 1
        ELSE 0 END) /COUNT(*) AS avgSignalBetween80And70,
    SUM(CASE
        WHEN (avgsignal<-60) AND (avgsignal>=-70) THEN 1
        ELSE 0 END) /COUNT(*) AS avgSignalBetween70And60,
    SUM(CASE
        WHEN (avgsignal<-50) AND (avgsignal>=-60) THEN 1
        ELSE 0 END) /COUNT(*) AS avgSignalBetween60And50,
    SUM(CASE
        WHEN (avgsignal<-40) AND (avgsignal>=-50) THEN 1
        ELSE 0 END) /COUNT(*) AS avgSignalBetween50And40,
    SUM(CASE
        WHEN (avgsignal<-30) AND (avgsignal>=-40) THEN 1
        ELSE 0 END) /COUNT(*) AS avgSignalBetween40And30,
    SUM(CASE
        WHEN (avgsignal<-20) AND (avgsignal>=-30) THEN 1
        ELSE 0 END) /COUNT(*) AS avgSignalBetween30And20,
    SUM(CASE
        WHEN (avgsignal<-1) AND (avgsignal>=-20) THEN 1
        ELSE 0 END) /COUNT(*) AS avgSignalBetween20And1,
    SUM(CASE
        WHEN (avgsignal=-1) THEN 1
        ELSE 0 END) /COUNT(*) AS avgSignalMinus1,
    SUM(CASE
        WHEN (avgsignal= 0) THEN 1
        ELSE 0 END) /COUNT(*) AS avgSignalMinus0,
    SUM(CASE
        WHEN (avgsignal> 0) THEN 1
        ELSE 0 END) /COUNT(*) AS avgSignalMinusPos,
    SUM(CASE
        WHEN (exitsignal<=-120) THEN 1
        ELSE 0 END) /COUNT(*) AS exitSignalMinus120AndBelow,
    SUM(CASE
        WHEN (exitsignal<-113) AND (exitsignal>-120) THEN 1
        ELSE 0 END) /COUNT(*) AS exitSignalBetween113And120,
    SUM(CASE
        WHEN (exitsignal=-113) THEN 1
        ELSE 0 END) /COUNT(*) AS exitSignalMinu113,
    SUM(CASE
        WHEN (exitsignal<-90) AND (exitsignal>-113) THEN 1
        ELSE 0 END) /COUNT(*) AS exitSignalBetween113And90,
    SUM(CASE
        WHEN (exitsignal<-80) AND (exitsignal>=-90) THEN 1
        ELSE 0 END) /COUNT(*) AS exitSignalBetween90And80,
    SUM(CASE
        WHEN (exitsignal<-70) AND (exitsignal>=-80) THEN 1
        ELSE 0 END) /COUNT(*) AS exitSignalBetween80And70,
    SUM(CASE
        WHEN (exitsignal<-60) AND (exitsignal>=-70) THEN 1
        ELSE 0 END) /COUNT(*) AS exitSignalBetween70And60,
    SUM(CASE
        WHEN (exitsignal<-50) AND (exitsignal>=-60) THEN 1
        ELSE 0 END) /COUNT(*) AS exitSignalBetween60And50,
    SUM(CASE
        WHEN (exitsignal<-40) AND (exitsignal>=-50) THEN 1
        ELSE 0 END) /COUNT(*) AS exitSignalBetween50And40,
    SUM(CASE
        WHEN (exitsignal<-30) AND (exitsignal>=-40) THEN 1
        ELSE 0 END) /COUNT(*) AS exitSignalBetween40And30,
    SUM(CASE
        WHEN (exitsignal<-20) AND (exitsignal>=-30) THEN 1
        ELSE 0 END) /COUNT(*) AS exitSignalBetween30And20,
    SUM(CASE
        WHEN (exitsignal<-1) AND (exitsignal>=-20) THEN 1
        ELSE 0 END) /COUNT(*) AS exitSignalBetween20And1,
    SUM(CASE
        WHEN (exitsignal=-1) THEN 1
        ELSE 0 END) /COUNT(*) AS exitSignalMinus1,
    SUM(CASE
        WHEN (exitsignal= 0) THEN 1
        ELSE 0 END) /COUNT(*) AS exitSignalMinus0,
    SUM(CASE
        WHEN (exitsignal> 0) THEN 1
        ELSE 0 END) /COUNT(*) AS exitSignalMinusPos,
    SUM(CASE
        WHEN (serverTalkStatus= -1) THEN 1
        ELSE 0 END) /COUNT(*) AS serverTalkminus1,
    SUM(CASE
        WHEN (serverTalkStatus= 0) THEN 1
        ELSE 0 END) /COUNT(*) AS serverTalk0,
    SUM(CASE
        WHEN (serverTalkStatus= 1) THEN 1
        ELSE 0 END) /COUNT(*) AS serverTalk1,
    SUM(CASE
        WHEN (serverTalkStatus= 2) THEN 1
        ELSE 0 END) /COUNT(*) AS serverTalk2,
    SUM(CASE
        WHEN (serverTalkStatus= 3) THEN 1
        ELSE 0 END) /COUNT(*) AS serverTalk3,
    SUM(CASE
        WHEN (serverTalkStatus= 4) THEN 1
        ELSE 0 END) /COUNT(*) AS serverTalk4,
    SUM(CASE
        WHEN (serverTalkStatus= 5) THEN 1
        ELSE 0 END) /COUNT(*) AS serverTalk5,
    SUM(CASE
        WHEN (serverTalkStatus= 6) THEN 1
        ELSE 0 END) /COUNT(*) AS serverTalk6,
    SUM(CASE
        WHEN (serverTalkStatus= 7) THEN 1
        ELSE 0 END) /COUNT(*) AS serverTalk7,
    SUM(CASE
        WHEN (inetState< 0) OR (inetState> 11) THEN 1
        ELSE 0 END) /COUNT(*) AS inetStateInvalid,
    SUM(CASE
        WHEN (inetState= 0) THEN 1
        ELSE 0 END) /COUNT(*) AS inetState0,
    SUM(CASE
        WHEN (inetState= 1) THEN 1
        ELSE 0 END) /COUNT(*) AS inetState1,
    SUM(CASE
        WHEN (inetState= 2) THEN 1
        ELSE 0 END) /COUNT(*) AS inetState2,
    SUM(CASE
        WHEN (inetState= 3) THEN 1
        ELSE 0 END) /COUNT(*) AS inetState3,
    SUM(CASE
        WHEN (inetState= 4) THEN 1
        ELSE 0 END) /COUNT(*) AS inetState4,
    SUM(CASE
        WHEN (inetState= 5) THEN 1
        ELSE 0 END) /COUNT(*) AS inetState5,
    SUM(CASE
        WHEN (inetState= 6) THEN 1
        ELSE 0 END) /COUNT(*) AS inetState6,
    SUM(CASE
        WHEN (inetState= 7) THEN 1
        ELSE 0 END) /COUNT(*) AS inetState7,
    SUM(CASE
        WHEN (inetState= 8) THEN 1
        ELSE 0 END) /COUNT(*) AS inetState8,
    SUM(CASE
        WHEN (inetState= 9) THEN 1
        ELSE 0 END) /COUNT(*) AS inetState9,
    SUM(CASE
        WHEN (inetState= 10) THEN 1
        ELSE 0 END) /COUNT(*) AS inetState10,
    SUM(CASE
        WHEN (inetState= 11) THEN 1
        ELSE 0 END) /COUNT(*) AS inetState11,
    SUM(CASE
        WHEN (wefiEngRx<-1) THEN 1
        ELSE 0 END) /COUNT(*) AS wefiEngRxNegative,
    SUM(CASE
        WHEN (wefiEngRx=-1) THEN 1
        ELSE 0 END) /COUNT(*) AS wefiEngRxMinus1,
    SUM(CASE
        WHEN (wefiEngRx=0) THEN 1
        ELSE 0 END) /COUNT(*) AS wefiEngRxZero,
    SUM(CASE
        WHEN (wefiEngRx>0) AND (wefiEngRx<1000) THEN 1
        ELSE 0 END) /COUNT(*) AS wefiEngRxUpTo1KB,
    SUM(CASE
        WHEN (wefiEngRx>=1000) AND (wefiEngRx<1000000) THEN 1
        ELSE 0 END) /COUNT(*) AS wefiEngRxUpTo1MB,
    SUM(CASE
        WHEN (wefiEngRx>=1000000) AND (wefiEngRx<10000000) THEN 1
        ELSE 0 END) /COUNT(*) AS wefiEngRxUpTo10MB,
    SUM(CASE
        WHEN (wefiEngRx>=10000000) AND (wefiEngRx<100000000) THEN 1
        ELSE 0 END) /COUNT(*) AS wefiEngRxUpTo100MB,
    SUM(CASE
        WHEN (wefiEngRx>=100000000) THEN 1
        ELSE 0 END) /COUNT(*) AS wefiEngRxMoreThan100MB,
    SUM(CASE
        WHEN (wefiEngTx<-1) THEN 1
        ELSE 0 END) /COUNT(*) AS wefiEngTxNegative,
    SUM(CASE
        WHEN (wefiEngTx=-1) THEN 1
        ELSE 0 END) /COUNT(*) AS wefiEngTxMinus1,
    SUM(CASE
        WHEN (wefiEngTx=0) THEN 1
        ELSE 0 END) /COUNT(*) AS wefiEngTxZero,
    SUM(CASE
        WHEN (wefiEngTx>0) AND (wefiEngTx<1000) THEN 1
        ELSE 0 END) /COUNT(*) AS wefiEngTxUpTo1KB,
    SUM(CASE
        WHEN (wefiEngTx>=1000) AND (wefiEngTx<1000000) THEN 1
        ELSE 0 END) /COUNT(*) AS wefiEngTxUpTo1MB,
    SUM(CASE
        WHEN (wefiEngTx>=1000000) AND (wefiEngTx<10000000) THEN 1
        ELSE 0 END) /COUNT(*) AS wefiEngTxUpTo10MB,
    SUM(CASE
        WHEN (wefiEngTx>=10000000) AND (wefiEngTx<100000000) THEN 1
        ELSE 0 END) /COUNT(*) AS wefiEngTxUpTo100MB,
    SUM(CASE
        WHEN (wefiEngTx>=100000000) THEN 1
        ELSE 0 END) /COUNT(*) AS wefiEngTxMoreThan100MB,
    SUM(CASE
        WHEN (activeMode= 0) THEN 1
        ELSE 0 END) /COUNT(*) AS activeMode0,
    SUM(CASE
        WHEN (activeMode= 1) THEN 1
        ELSE 0 END) /COUNT(*) AS activeMode1,
    SUM(CASE
        WHEN (activeMode= 2) THEN 1
        ELSE 0 END) /COUNT(*) AS activeMode2,
    SUM(CASE
        WHEN (activeMode< 0) OR (activeMode> 2) THEN 1
        ELSE 0 END) /COUNT(*) AS activeModeInvalid,
    SUM(CASE
        WHEN (connectedCnr= 0) THEN 1
        ELSE 0 END) /COUNT(*) AS connectedCnr0,
    SUM(CASE
        WHEN (connectedCnr< 0) THEN 1
        ELSE 0 END) /COUNT(*) AS connectedCnrNeg,
    SUM(CASE
        WHEN (connectedCnr> 0) AND (connectedCnr< 100000) THEN 1
        ELSE 0 END) /COUNT(*) AS connectedCnrless100000,
    SUM(CASE
        WHEN (connectedCnr>= 100000) THEN 1
        ELSE 0 END) /COUNT(*) AS connectedCnrMoreThan100000,
    SUM(CASE
        WHEN (connectedDevices= -1) THEN 1
        ELSE 0 END) /COUNT(*) AS connectedDevicesMinus1,
    SUM(CASE
        WHEN (connectedDevices= 0) THEN 1
        ELSE 0 END) /COUNT(*) AS connectedDevices0,
    SUM(CASE
        WHEN (connectedDevices= 1) THEN 1
        ELSE 0 END) /COUNT(*) AS connectedDevices1,
    SUM(CASE
        WHEN (connectedDevices> 1) AND (connectedDevices< 10)THEN 1
        ELSE 0 END) /COUNT(*) AS connectedDevicesUpTo10,
    SUM(CASE
        WHEN (connectedDevices>= 10) AND (connectedDevices< 30)THEN 1
        ELSE 0 END) /COUNT(*) AS connectedDevicesUpTo30,
    SUM(CASE
        WHEN (connectedDevices>=30 ) AND (connectedDevices< 100)THEN 1
        ELSE 0 END) /COUNT(*) AS connectedDevicesUpTo100,
    SUM(CASE
        WHEN (connectedDevices>=100 ) AND (connectedDevices< 127)THEN 1
        ELSE 0 END) /COUNT(*) AS connectedDevicesUpTo126,
    SUM(CASE
        WHEN (connectedDevices>=127) THEN 1
        ELSE 0 END) /COUNT(*) AS connectedDevicesMoreThan126,
    SUM(CASE
        WHEN (profileStatus= -1) THEN 1
        ELSE 0 END) /COUNT(*) AS profileStatusMinus1,
    SUM(CASE
        WHEN (profileStatus= 0) THEN 1
        ELSE 0 END) /COUNT(*) AS profileStatus0,
    SUM(CASE
        WHEN (profileStatus= 1) THEN 1
        ELSE 0 END) /COUNT(*) AS profileStatus1,
    SUM(CASE
        WHEN (profileStatus= 2) THEN 1
        ELSE 0 END) /COUNT(*) AS profileStatus2,
    SUM(CASE
        WHEN (profileStatus= 3) THEN 1
        ELSE 0 END) /COUNT(*) AS profileStatus3,
    SUM(CASE
        WHEN (profileStatus= 4) THEN 1
        ELSE 0 END) /COUNT(*) AS profileStatus4,
    SUM(CASE
        WHEN (profileStatus>4) OR (profileStatus<-1) THEN 1
        ELSE 0 END) /COUNT(*) AS profileStatusInvalid,
    SUM(CASE
        WHEN (ssid IS NULL) OR (ssid="") OR (ssid=" ") THEN 1
        ELSE 0 END) /COUNT(*) AS ssidEmpty,
    SUM(CASE
        WHEN (LENGTH(ssid)>0) AND (ssid IS NOT NULL) AND (ssid!=" ") THEN 1
        ELSE 0 END) /COUNT(*) AS ssidCorrect,
    SUM(CASE
        WHEN (encType= -1) THEN 1
        ELSE 0 END) /COUNT(*) AS encTypeMinus1,
    SUM(CASE
        WHEN (encType= 0) THEN 1
        ELSE 0 END) /COUNT(*) AS encType0,
    SUM(CASE
        WHEN (encType= 1) THEN 1
        ELSE 0 END) /COUNT(*) AS encType1,
    SUM(CASE
        WHEN (encType= 2) THEN 1
        ELSE 0 END) /COUNT(*) AS encType2,
    SUM(CASE
        WHEN (encType= 3) THEN 1
        ELSE 0 END) /COUNT(*) AS encType3,
    SUM(CASE
        WHEN (encType= 4) THEN 1
        ELSE 0 END) /COUNT(*) AS encType4,
    SUM(CASE
        WHEN (encType= 5) THEN 1
        ELSE 0 END) /COUNT(*) AS encType5,
    SUM(CASE
        WHEN (encType> 5) OR (encType< -1) THEN 1
        ELSE 0 END) /COUNT(*) AS encTypeInvalid,
    SUM(CASE
        WHEN (wifiFrequency= -1) THEN 1
        ELSE 0 END) /COUNT(*) AS wifiFrequencyMinus1,
    SUM(CASE
        WHEN (wifiFrequency= 0) THEN 1
        ELSE 0 END) /COUNT(*) AS wifiFrequency0,
    SUM(CASE
        WHEN (wifiFrequency>0) AND (wifiFrequency<2000) THEN 1
        ELSE 0 END) /COUNT(*) AS wifiFrequency1To2000,
    SUM(CASE
        WHEN (wifiFrequency>=2000) AND (wifiFrequency<3000) THEN 1
        ELSE 0 END) /COUNT(*) AS wifiFrequency2000To3000,
    SUM(CASE
        WHEN (wifiFrequency>=3000) AND (wifiFrequency<5000) THEN 1
        ELSE 0 END) /COUNT(*) AS wifiFrequency3000To5000,
    SUM(CASE
        WHEN (wifiFrequency>=5000) AND (wifiFrequency<6000) THEN 1
        ELSE 0 END) /COUNT(*) AS wifiFrequency5000To6000,
    SUM(CASE
        WHEN (wifiFrequency>=6000) THEN 1
        ELSE 0 END) /COUNT(*) AS wifiFrequencyMoreThan6000,
    MIN(DATE(sessionLocalStartDate)) AS min_date,
    MAX(DATE(sessionLocalStartDate)) AS max_date /*************************/
   FROM
   (
      SELECT
        *
      FROM
      --TABLE_DATE_RANGE(b_audit_wificonnection.T_, TIMESTAMP("20180730"), TIMESTAMP("20180731")))
    
	TABLE_QUERY(b_audit_wificonnection,
    'table_id BETWEEN CONCAT(SUBSTR("20180730",0,4),"_","20180730")
    AND CONCAT(SUBSTR("20180731",0,4),"_","20180731")' )
    )
	
	
	
	WHERE
      softwareVersion IN (400700002804500)

      AND isfirstRecord=1
    GROUP BY
      softwareVersion)