General_Info,wefiVersion,numUEIDs,numDevices,numSessions,Median,rx__Median,tx__Median,maxRxThrpt__Median,maxTxThrpt__Median,Average,rx__Average,tx__Average,maxRxThrpt__Average,maxTxThrpt__Average,Histogram,hostedApp0,hostedAppPositive,AndroidPlatForm,iOSPlatForm,WinPlatForm,WinPhPlatForm,latZero,latMinus1,latMinus180,lat180,latValid,longtZero,longtMinus1,longtMinus180,longt180,longtValid,rxNegative,rxMinus1,rxZero,rxUpTo1KB,rxUpTo1MB,rxUpTo1GB,rxUpTo100GB,rxMoreThan100GB,txNegative,txMinus1,txZero,txUpTo1KB,txUpTo1MB,txUpTo1GB,txUpTo100GB,txMoreThan100GB,maxRxThrptNegative,maxRxThrptMinus1,maxRxThrptZero,maxRxThrptUpTo1Kbps,maxRxThrptUpTo1Mbps,maxRxThrptUpTo10Mbps,maxRxThrptUpTo100Mbps,maxRxThrptMoreThan100Mbps,maxTxThrptNegative,maxTxThrptMinus1,maxTxThrptZero,maxTxThrptUpTo1Kbps,maxTxThrptUpTo1Mbps,maxTxThrptUpTo10Mbps,maxTxThrptUpTo100Mbps,maxTxThrptMoreThan100Mbps,motionTypeMaxConfidenceLess0,motionTypeMaxConfidenceZero,motionTypeMaxConfidence25,motionTypeMaxConfidence50,motionTypeMaxConfidence75,motionTypeMaxConfidence100,motionTypeMaxConfidenceGT100,motionTypeMinConfidence0,motionTypeMinConfidenceZero,motionTypeMinConfidence25,motionTypeMinConfidence50,motionTypeMinConfidence75,motionTypeMinConfidence100,motionTypeMinConfidenceGT100,avgRxThrptNegative,avgRxThrptMinus1,avgRxThrptZero,avgRxThrptUpTo1Kbps,avgRxThrptUpTo1Mbps,avgRxThrptUpTo10Mbps,avgRxThrptUpTo100Mbps,avgRxThrptMoreThan100Mbps,accuracyMinus1,accuracyZero,accuracyTill100,accuracyTill1000,accuracyTill10000,accuracyMoreThan10000,maxLocationAccuracyLess0,maxLocationAccuracyZero,maxLocationAccuracy100,maxLocationAccuracy1000,maxLocationAccuracy10000,maxLocationAccuracyGT10000,avgLocationAccuracyLess0,avgLocationAccuracyZero,avgLocationAccuracy100,avgLocationAccuracy000,avgLocationAccuracy10000,avgLocationAccuracyGT10000,min_date,max_date
<General_Info>,400600401404102,388210,367766,82024878,<Median>,33637.0,17070.0,28600.0,14724.0,<Average>,5375124.038837046,724692.749385284,2043958.1642206004,518519.92181828484,<Histogram>,0.0,1.0,1.0,0.0,0.0,0.0,1.221580603874839e-05,0.0,0.0,0.02580044069068899,0.9741873435032723,1.914053441201095e-06,0.0,2.4382846384727326e-08,0.02580044069068899,0.9741976208730234,4.4218291918703005e-05,0.0,0.5483371886270895,0.046348340804603205,0.33472767859526714,0.0702679374908671,0.00027459961598479913,3.657426957709099e-08,1.2532783041749846e-05,0.0,0.5415913328149052,0.05075407731785959,0.38248496998678866,0.025134886515771473,2.220058163329423e-05,0.0,0.0001177325737686559,0.0,0.5483416506879779,0.05248680772192066,0.3320499422138732,0.05352889400213433,0.012788351846131365,0.0006866209541939216,1.477600490914476e-05,0.0,0.5415954291330979,0.05965475498787087,0.3891628464232522,0.007819371581387784,0.0013812272905788412,0.00037159457890324445,0.4257889173574876,0.0,0.0034564635378061762,0.08677410041377934,0.07076956578954009,0.4132109529013868,0.0,0.4257889173574876,0.0,0.0038794449654652335,0.07599217642237761,0.06366919558234516,0.4306702656723244,0.0,0.00011090537678093224,0.0,0.5483427601074884,0.057322048074244014,0.3372324674472542,0.04980943708322248,0.006559192931685921,0.0006231889793240534,0.013509169742379867,5.0167706436576475e-05,0.828149649914749,0.07727923716021863,0.06697604597473464,0.014035729501481246,0.025803939629145196,2.9198458545710975e-05,0.8136796009620398,0.08914651479274373,0.06911230029503976,0.0022284458624857693,0.02580407373480031,3.210001726549353e-05,0.8214985580350391,0.08258324992571156,0.0681745969801991,0.0019074213069844492,2018-01-18,2018-01-19
<General_Info>,400500201604102,454552,450956,95819460,<Median>,33362.0,16862.0,28363.0,14554.0,<Average>,5079575.354745872,657033.7466412243,1911002.5347352014,472308.2710444769,<Histogram>,0.0,1.0,1.0,0.0,0.0,0.0,1.0791127397294871e-05,0.0,0.0,0.024191954327440375,0.9757972545451623,1.544571426305262e-06,0.0,5.21814671049075e-08,0.024191954327440375,0.9758064489196662,5.1242200697019166e-05,0.0,0.5371791178952584,0.04691837127865258,0.34480657686862354,0.07079022361428461,0.000254415961016687,5.21814671049075e-08,1.210610036833854e-05,0.0,0.5302138104305744,0.05159029282778258,0.3934925640365746,0.02467143939237395,1.9776776032759942e-05,1.04362934209815e-08,0.00010867312339268036,0.0,0.5371840333894597,0.05324563507245814,0.3420342485753938,0.054119966862681126,0.012681307116529357,0.0006261358600852061,1.3097548243331782e-05,0.0,0.5302177970946611,0.060518959301169094,0.4001022130577651,0.007481371738058219,0.0013253988281712295,0.0003411624319318852,0.4342746974361993,0.0,0.0033904595162611018,0.08645832485384493,0.06959581070484012,0.4062807074888546,0.0,0.4342746974361993,0.0,0.00384829970863956,0.07623899153679221,0.06328214540136211,0.42235586591700686,0.0,0.00010168080680062276,0.0,0.5371863502465992,0.05828346350522117,0.3474798856098751,0.05010836003459005,0.006269874616283581,0.000570385180630323,0.012426964209566616,4.515784163258695e-05,0.8282725033098705,0.07828766724421114,0.06723240769672466,0.013735299697994542,0.024195325250215352,2.4024347455099413e-05,0.8134554191810307,0.09032333306825148,0.0694758246393791,0.002526073513668309,0.024195554848670614,2.663342081034479e-05,0.8214006006713042,0.08366276537146003,0.06854370709248414,0.002170738595270731,2018-01-11,2018-01-12
