  --112.WiFI_Audit_OLD_Version_BySessionType.txt
SELECT
  *
FROM ( (( (
        SELECT
          *
        FROM (
          SELECT
            CONCAT("<General_Info",">") AS General_Info /*************************/ /* General Info*/,
            a.softwareVersion,
            a.sessionType,
            EXACT_COUNT_DISTINCT(a.cnc) AS numDevices,
            COUNT(*) AS numSessions,
            CONCAT("<Median",">") AS Median /*************************/ /* Median*/,
            /*Medians*/ ROUND(NTH(501, QUANTILES(IF(a.SessionDuration>0,a.SessionDuration/60000,NULL), 1001)),4) AS SessionDuration_Min__Median,
            -- the median is calculated for the positive numbers
            ROUND(NTH(501, QUANTILES(IF(a.rx>0,a.rx,NULL), 1001)),4) AS rx__Median,
            ROUND(NTH(501, QUANTILES(IF(a.tx>0,a.tx,NULL), 1001)),4) AS tx__Median,
            ROUND(NTH(501, QUANTILES(IF(a.maxRxThrpt>0,a.maxRxThrpt,NULL), 1001)),24) AS maxRxThrpt__Median,
            ROUND(NTH(501, QUANTILES(IF(a.maxTxThrpt>0,a.maxTxThrpt,NULL), 1001)),4) AS maxTxThrpt__Median,
            ROUND(NTH(501, QUANTILES(IF(a.Latency>0,a.Latency,NULL), 1001)),4) AS Latency__Median,
            ROUND(NTH(501, QUANTILES(IF(a.wAvgLatency>0,a.wAvgLatency,NULL), 1001)),4) AS wAvgLatency__Median,
            CONCAT("<Average",">") AS Average /*************************/ /* Average*/,
            AVG(IF(a.SessionDuration>0,SessionDuration/60000,NULL)) AS SessionDuration_Min__Average,
            AVG(IF(a.rx>0,a.rx,NULL)) AS rx__Average,
            AVG(IF(a.tx>0,a.tx,NULL)) AS tx__Average,
            AVG(IF(a.maxRxThrpt>0,a.maxRxThrpt,NULL)) AS maxRxThrpt__Average,
            AVG(IF(a.maxTxThrpt>0,a.maxTxThrpt,NULL)) AS maxTxThrpt__Average,
            AVG(IF(a.Latency>0,a.Latency,NULL)) AS Latency__Average,
            AVG(IF(a.wAvgLatency>0,a.wAvgLatency,NULL)) AS wAvgLatency__Average,
            CONCAT("<% of Failure",">") AS Failures /*************************/ /* % of Failures*/,
            ROUND((SUM(IF(a.SessionDuration<=0,1,0)) / COUNT(*)),4) AS SessionDuration__Not_Valid,
            ROUND((SUM(CASE
                    WHEN (a.SessionType =a.SessionType AND a.SessionType <0 OR a.SessionType IS NULL ) THEN 1 -- sesion type lower than 1 is obnormal
                    ELSE 0 END) /COUNT(*)),4) AS SessionType__Not_Valid,
            ROUND((SUM(CASE
                    WHEN (a.crashState =a.crashState AND a.crashState >1 OR a.crashState IS NULL ) THEN 1
                    ELSE 0 END) /COUNT(*)),4) AS crashState__Occurred,
            ROUND((SUM(CASE
                    WHEN (a.lat =a.lat AND a.lat IN (0,  -1 ) OR a.lat IS NULL ) THEN 1
                    ELSE 0 END) /COUNT(*)),4) AS lat__Not_Valid,
            ROUND((SUM(CASE
                    WHEN (a.longt =a.longt AND a.longt IN (0,  -1 ) OR a.longt IS NULL ) THEN 1
                    ELSE 0 END) /COUNT(*)),4) AS longt__Not_Valid,
            ROUND((SUM(CASE
                    WHEN (a.accuracy =a.accuracy AND a.accuracy IN (0,  -1 ) OR accuracy IS NULL ) THEN 1
                    ELSE 0 END) /COUNT(*)),4) AS accuracy__Not_Valid,
            ROUND((SUM(CASE
                    WHEN (a.rx =a.rx AND a.rx IN (0,  -1 ) OR a.rx IS NULL ) THEN 1
                    ELSE 0 END) /COUNT(*)),4) AS rx__Not_Valid,
            ROUND((SUM(CASE
                    WHEN (a.tx =a.tx AND a.tx IN (0,  -1 ) OR a.tx IS NULL ) THEN 1
                    ELSE 0 END) /COUNT(*)),4) AS tx__Not_Valid,
            ROUND((SUM(CASE
                    WHEN (a.wefiRx =a.wefiRx AND a.wefiRx IN (0,  -1 ) OR a.wefiRx IS NULL ) THEN 1 -- Received traffic size during the session by wefi hosted application (that uses WeFi engine).
                    ELSE 0 END) /COUNT(*)),4) AS wefiRx__Not_Valid,
            ROUND((SUM(CASE
                    WHEN (a.wefiTx =a.wefiTx AND a.wefiTx IN (0,  -1 ) OR a.wefiTx IS NULL ) THEN 1 -- Transmitted traffic size during the session by wefi hosted application (that uses WeFi engine).
                    ELSE 0 END) /COUNT(*)),4) AS wefiTx__Not_Valid,
            ROUND((SUM(CASE
                    WHEN (a.maxRxThrpt =a.maxRxThrpt AND a.maxRxThrpt IN (0,  -1 ) OR a.maxRxThrpt IS NULL ) THEN 1 --Maximum received data rate that is calculated based on Rx delta measured in the session divided by RX readings time delta.
                    ELSE 0 END) /COUNT(*)),4) AS maxRxThrpt__Not_Valid,
            ROUND((SUM(CASE
                    WHEN (a.maxTxThrpt =a.maxTxThrpt AND a.maxTxThrpt IN (0,  -1 ) OR a.maxTxThrpt IS NULL ) THEN 1 -- Maximum transmitted data rate that is calculated based on Tx delta measured in the session divided by TX readings time delta.
                    ELSE 0 END) /COUNT(*)),4) AS maxTxThrpt__Not_Valid,
            ROUND((SUM(CASE
                    WHEN (a.Latency =a.Latency AND a.Latency IN (0,  -1 ) OR a.Latency IS NULL ) THEN 1
                    ELSE 0 END) /COUNT(*)),4) AS Latency__Not_Valid,
            ROUND((SUM(CASE
                    WHEN (a.wAvgLatency =a.wAvgLatency AND a.wAvgLatency IN (0,  -1 ) OR a.wAvgLatency IS NULL ) THEN 1 -- Average latency during session
                    ELSE 0 END) /COUNT(*)),4) AS wAvgLatency__Not_Valid,
            ROUND((SUM(CASE
                    WHEN (a.serverTalkStatus =a.serverTalkStatus AND a.serverTalkStatus IN (0,  -1 ) OR serverTalkStatus IS NULL ) THEN 1
                    ELSE 0 END) /COUNT(*)),4) AS serverTalkStatus__Not_Valid,
            -- Enum that indicates server talk status
            ROUND((SUM(CASE
                    WHEN (a.inetstate =a.inetstate AND a.inetstate IN (0,  -1 ) OR a.inetstate IS NULL ) THEN 1
                    ELSE 0 END) /COUNT(*)),4) AS inetstate__Not_Valid,
            ROUND((SUM(CASE
                    WHEN (a.wefiEngRx =a.wefiEngRx AND a.wefiEngRx IN (0,  -1 ) OR a.wefiEngRx IS NULL ) THEN 1 -- Received traffic size during the session by WeFi engine.
                    ELSE 0 END) /COUNT(*)),4) AS wefiEngRx__Not_Valid,
            ROUND((SUM(CASE
                    WHEN (a.wefiEngTx =a.wefiEngTx AND a.wefiEngTx IN (0,  -1 ) OR a.wefiEngTx IS NULL ) THEN 1 -- Transmitted traffic size during the session by WeFi engine.
                    ELSE 0 END) /COUNT(*)),4) AS wefiEngTx__Not_Valid,
            ROUND((SUM(CASE
                    WHEN (a.ssid =a.ssid AND ssid IS NULL ) THEN 1
                    ELSE 0 END) /COUNT(*)),4) AS ssid__Not_Valid,
            ROUND((SUM(CASE
                    WHEN (a.encType =a.encType AND a.encType IN (-1 ) OR a.encType IS NULL ) THEN 1
                    ELSE 0 END) /COUNT(*)),4) AS encType__Not_Valid,
            ROUND((SUM(CASE
                    WHEN (a.profileStatus =a.profileStatus AND a.profileStatus IN (0,  -1 ) OR a.profileStatus IS NULL ) THEN 1
                    ELSE 0 END) /COUNT(*)),4) AS profileStatus__Not_Valid,
            ROUND((SUM(CASE
                    WHEN (a.ConnectedCnr =a.ConnectedCnr AND a.ConnectedCnr IN (0,  -1 ) OR a.ConnectedCnr IS NULL ) THEN 1
                    ELSE 0 END) /COUNT(*)),4) AS ConnectedCnr__Not_Valid,
            ROUND((SUM(CASE
                    WHEN (a.activeMode =a.activeMode AND a.activeMode IN (0,  -1 ) OR a.activeMode IS NULL ) THEN 1
                    ELSE 0 END) /COUNT(*)),4) AS activeMode__Not_Valid,
            ROUND((SUM(CASE
                    WHEN (a.bw =a.bw AND a.bw IN (0,  -1) OR a.bw IS NULL ) THEN 1
                    ELSE 0 END) /COUNT(*)),4) AS bw__Not_Valid,
            ROUND((SUM(CASE
                    WHEN (a.BestCandidateGrade =a.BestCandidateGrade AND a.BestCandidateGrade IN (0,  -1 ) OR a.BestCandidateGrade IS NULL ) THEN 1
                    ELSE 0 END) /COUNT(*)),4) AS BestCandidateGrade__Not_Valid,
            ROUND((SUM(CASE
                    WHEN (a.CellId =a.CellId AND a.CellId IN (0,  -1 ) OR a.CellId IS NULL ) THEN 1
                    ELSE 0 END) /COUNT(*)),4) AS CellId__Not_Valid,
            ROUND((SUM(CASE
                    WHEN (a.CellLac =a.CellLac AND a.CellLac IN (0,  -1 ) OR a.CellLac IS NULL ) THEN 1
                    ELSE 0 END) /COUNT(*)),4) AS CellLac__Not_Valid,
            ROUND((SUM(CASE
                    WHEN (a.connectedDevices =a.connectedDevices AND a.connectedDevices IN (0,  -1 ) OR a.connectedDevices IS NULL ) THEN 1
                    ELSE 0 END) /COUNT(*)),4) AS connected_devices__Not_Valid,
            ROUND((SUM(CASE
                    WHEN (a.connectedGrade =a.connectedGrade AND a.connectedGrade IN (0,  -1 ) OR a.connectedGrade IS NULL ) THEN 1
                    ELSE 0 END) /COUNT(*)),4) AS connectedGrade__Not_Valid,
            ROUND((SUM(CASE
                    WHEN (a.ConnectionMode =a.ConnectionMode AND a.ConnectionMode IN (0,  -1 ) OR a.ConnectionMode IS NULL ) THEN 1
                    ELSE 0 END) /COUNT(*)),4) AS ConnectionMode__Not_Valid,
            ROUND((SUM(CASE
                    WHEN (a.ConnectionId =a.ConnectionId AND a.ConnectionId IN (0,  -1 ) OR a.ConnectionId IS NULL ) THEN 1
                    ELSE 0 END) /COUNT(*)),4) AS ConnectionId__Not_Valid,
            ROUND((SUM(CASE
                    WHEN (a.wAvgRxThrpt =a.wAvgRxThrpt AND a.wAvgRxThrpt IN (0,  -1 ) OR a.wAvgRxThrpt IS NULL ) THEN 1
                    ELSE 0 END) /COUNT(*)),4) AS wAvgRxThrpt__Not_Valid,
            ROUND((SUM(CASE
                    WHEN (a.wAvgTxThrpt =a.wAvgTxThrpt AND a.wAvgTxThrpt IN (0,  -1 ) OR a.wAvgTxThrpt IS NULL ) THEN 1
                    ELSE 0 END) /COUNT(*)),4) AS wAvgTxThrpt__Not_Valid,
            ROUND((SUM(CASE
                    WHEN (a.parentConnId =a.parentConnId AND a.parentConnId IN (0,  -1 ) OR a.parentConnId IS NULL ) THEN 1
                    ELSE 0 END) /COUNT(*)),4) AS parentConnId__Not_Valid,
            ROUND((SUM(CASE
                    WHEN (a.cellDataState =a.cellDataState AND a.cellDataState IN (0,  -1 ) OR a.cellDataState IS NULL ) THEN 1
                    ELSE 0 END) /COUNT(*)),4) AS cellDataState__Not_Valid,
            ROUND((SUM(CASE
                    WHEN (a.cellAround =a.cellAround AND a.cellAround IN (0,  -1 ) OR a.cellAround IS NULL ) THEN 1
                    ELSE 0 END) /COUNT(*)),4) AS cellAround__Not_Valid,
            ROUND((SUM(CASE
                    WHEN (a.opnNetworkId =a.opnNetworkId AND a.opnNetworkId IN (0,  -1 ) OR a.opnNetworkId IS NULL ) THEN 1
                    ELSE 0 END) /COUNT(*)),4) AS opnNetworkId__Not_Valid,
            ROUND((SUM(CASE
                    WHEN (a.signal =a.signal AND a.signal IN (0,  -1 ) OR a.signal IS NULL ) THEN 1
                    ELSE 0 END) /COUNT(*)),4) AS signal__Not_Valid,
            ROUND((SUM(CASE
                    WHEN (a.AvgSignal =a.AvgSignal AND a.AvgSignal IN (0,  -1 ) OR a.AvgSignal IS NULL ) THEN 1
                    ELSE 0 END) /COUNT(*)),4) AS AvgSignal__Not_Valid,
            ROUND((SUM(CASE
                    WHEN (a.minSignal =a.minSignal AND a.minSignal IN (0,  -1 ) OR a.minSignal IS NULL ) THEN 1
                    ELSE 0 END) /COUNT(*)),4) AS minSignal__Not_Valid,
            ROUND((SUM(CASE
                    WHEN (a.exitSignal =a.exitSignal AND a.exitSignal IN (0,  -1 ) OR a.exitSignal IS NULL ) THEN 1
                    ELSE 0 END) /COUNT(*)),4) AS exitSignal__Not_Valid,
            ROUND((SUM(CASE
                    WHEN (a.bestCandidateCnr =a.bestCandidateCnr AND a.bestCandidateCnr IN (0,  -1 ) OR a.bestCandidateCnr IS NULL ) THEN 1
                    ELSE 0 END) /COUNT(*)),4) AS bestCandidateCnr__Not_Valid,
            ROUND((SUM(CASE
                    WHEN (a.distance =a.distance AND a.distance IN (0,  -1 ) OR a.distance IS NULL ) THEN 1
                    ELSE 0 END) /COUNT(*)),4) AS distance__Not_Valid,
            ROUND((SUM(CASE
                    WHEN (a.networkType =a.networkType AND a.networkType IN (0,  -1 ) OR a.networkType IS NULL ) THEN 1
                    ELSE 0 END) /COUNT(*)),4) AS networkType__Not_Valid,
            ROUND((SUM(CASE
                    WHEN (a.groupId =a.groupId AND a.groupId IN (0,  -1 ) OR a.groupId IS NULL ) THEN 1
                    ELSE 0 END) /COUNT(*)),4) AS groupId__Not_Valid,
            ROUND((SUM(CASE
                    WHEN (a.msSinceStart =a.msSinceStart AND a.msSinceStart IN (0,  -1 ) OR a.msSinceStart IS NULL ) THEN 1
                    ELSE 0 END) /COUNT(*)),4) AS msSinceStart__Not_Valid,
            ROUND((SUM(CASE
                    WHEN (a.bestCandidateType =a.bestCandidateType AND a.bestCandidateType IN (0,  -1 ) OR a.bestCandidateType IS NULL ) THEN 1
                    ELSE 0 END) /COUNT(*)),4) AS bestCandidateType__Not_Valid,
            ROUND((SUM(CASE
                    WHEN (a.PLMN =a.PLMN AND a.PLMN IN (0,  -1 ) OR a.PLMN IS NULL ) THEN 1
                    ELSE 0 END) /COUNT(*)),4) AS PLMN__Not_Valid,
            ROUND((SUM(CASE
                    WHEN (a.affinityType =a.affinityType AND a.affinityType IN (0,  -1 ) OR a.affinityType IS NULL ) THEN 1
                    ELSE 0 END) /COUNT(*)),4) AS affinityType__Not_Valid,
            ROUND((SUM(CASE
                    WHEN (a.domainId =a.domainId AND a.domainId IN (0,  -1 ) OR a.domainId IS NULL ) THEN 1
                    ELSE 0 END) /COUNT(*)),4) AS domainId__Not_Valid,
            ROUND((SUM(CASE
                    WHEN (a.osMajor =a.osMajor AND a.osMajor IN (0,  -1 ) OR a.osMajor IS NULL ) THEN 1
                    ELSE 0 END) /COUNT(*)),4) AS osMajor__Not_Valid,
            ROUND((SUM(CASE
                    WHEN (a.osminor =a.osminor AND a.osminor IN (-1 ) OR a.osminor IS NULL ) THEN 1
                    ELSE 0 END) /COUNT(*)),4) AS osminor__Not_Valid,
            ROUND((SUM(CASE
                    WHEN (a.osBuild =a.osBuild AND a.osBuild IN (0,  -1 ) OR a.osBuild IS NULL ) THEN 1
                    ELSE 0 END) /COUNT(*)),4) AS osBuild__Not_Valid,
            ROUND((SUM(CASE
                    WHEN (a.batteryPercentBegin =a.batteryPercentBegin AND a.batteryPercentBegin IN (0,  -1 ) OR a.batteryPercentBegin IS NULL ) THEN 1
                    ELSE 0 END) /COUNT(*)),4) AS batteryPercentBegin__Not_Valid,
            ROUND((SUM(CASE
                    WHEN (a.batteryPercentEnd =a.batteryPercentEnd AND a.batteryPercentEnd IN (0,  -1 ) OR a.batteryPercentEnd IS NULL ) THEN 1
                    ELSE 0 END) /COUNT(*)),4) AS a.batteryPercentEnd__Not_Valid,
            ROUND((SUM(CASE
                    WHEN (a.batteryCharge =a.batteryCharge AND a.batteryCharge IN (0,  -1 ) OR a.batteryCharge IS NULL ) THEN 1
                    ELSE 0 END) /COUNT(*)),4) AS batteryCharge__Not_Valid,
            ROUND((SUM(CASE
                    WHEN (a.startLinkSpeed =a.startLinkSpeed AND a.startLinkSpeed IN (0,  -1 ) OR a.startLinkSpeed IS NULL ) THEN 1
                    ELSE 0 END) /COUNT(*)),4) AS startLinkSpeed__Not_Valid,
            ROUND((SUM(CASE
                    WHEN (a.exitLinkSpeed =a.exitLinkSpeed AND a.exitLinkSpeed IN (0,  -1 ) OR a.exitLinkSpeed IS NULL ) THEN 1
                    ELSE 0 END) /COUNT(*)),4) AS exitLinkSpeed__Not_Valid,
            ROUND((SUM(CASE
                    WHEN (a.minLinkSpeed =a.minLinkSpeed AND a.minLinkSpeed IN (0,  -1 ) OR a.minLinkSpeed IS NULL ) THEN 1
                    ELSE 0 END) /COUNT(*)),4) AS minLinkSpeed__Not_Valid,
            ROUND((SUM(CASE
                    WHEN (a.apn =a.apn AND a.apn IS NULL ) THEN 1
                    ELSE 0 END) /COUNT(*)),4) AS apn__Not_Valid,
            ROUND((SUM(CASE
                    WHEN (a.wifiFrequency =a.wifiFrequency AND a.wifiFrequency IN (0,  -1 ) OR a.wifiFrequency IS NULL ) THEN 1
                    ELSE 0 END) /COUNT(*)),4) AS wifiFrequency__Not_Valid,
            CONCAT("<Histogram",">") AS Histogram /*************************/ /* Histogram*/,
            SUM(CASE
                WHEN (a.sessionDuration <-1) THEN 1
                ELSE 0 END) /COUNT(*) AS DurationMinus,
            SUM(CASE
                WHEN (a.sessionDuration =-1) THEN 1
                ELSE 0 END) /COUNT(*) AS DurationMinus1,
            SUM(CASE
                WHEN (a.sessionDuration =0) THEN 1
                ELSE 0 END) /COUNT(*) AS DurationZero,
            SUM(CASE
                WHEN (a.sessionDuration >0 AND a.sessionDuration<=100) THEN 1
                ELSE 0 END) /COUNT(*) AS DurationUp100ms,
            SUM(CASE
                WHEN (a.sessionDuration >100 AND a.sessionDuration<=15000) THEN 1
                ELSE 0 END) /COUNT(*) AS DurationUp15Sec,
            SUM(CASE
                WHEN (a.sessionDuration >15000 AND a.sessionDuration<=30000) THEN 1
                ELSE 0 END) /COUNT(*) AS DurationUp30Sec,
            SUM(CASE
                WHEN (a.sessionDuration >30000 AND a.sessionDuration<=86400000) THEN 1
                ELSE 0 END) /COUNT(*) AS DurationUp1Day,
            SUM(CASE
                WHEN (a.sessionDuration >86400000) THEN 1
                ELSE 0 END) /COUNT(*) AS DurationMoreThan1Day,
            SUM(CASE
                WHEN (a.sessionType < 0 ) THEN 1
                ELSE 0 END) /COUNT(*) AS sessionTypeNeg,
            SUM(CASE
                WHEN (a.sessionType = 0 ) THEN 1
                ELSE 0 END) /COUNT(*) AS sessionType0,
            SUM(CASE
                WHEN (a.sessionType = 1 ) THEN 1
                ELSE 0 END) /COUNT(*) AS sessionType1,
            SUM(CASE
                WHEN (a.sessionType = 2 ) THEN 1
                ELSE 0 END) /COUNT(*) AS sessionType2,
            SUM(CASE
                WHEN (a.sessionType = 3 ) THEN 1
                ELSE 0 END) /COUNT(*) AS sessionType3,
            SUM(CASE
                WHEN (a.sessionType = 4 ) THEN 1
                ELSE 0 END) /COUNT(*) AS sessionType4,
            SUM(CASE
                WHEN (a.sessionType = 5 ) THEN 1
                ELSE 0 END) /COUNT(*) AS sessionType5,
            SUM(CASE
                WHEN (a.sessionType = 6 ) THEN 1
                ELSE 0 END) /COUNT(*) AS sessionType6,
            SUM(CASE
                WHEN (a.sessionType = 7 ) THEN 1
                ELSE 0 END) /COUNT(*) AS sessionType7,
            SUM(CASE
                WHEN (a.sessionType = 8 ) THEN 1
                ELSE 0 END) /COUNT(*) AS sessionType8,
            SUM(CASE
                WHEN (a.sessionType = 9 ) THEN 1
                ELSE 0 END) /COUNT(*) AS sessionType9,
            SUM(CASE
                WHEN (a.sessionType = 10 ) THEN 1
                ELSE 0 END) /COUNT(*) AS sessionType10,
            SUM(CASE
                WHEN (a.sessionType = 11) THEN 1
                ELSE 0 END) /COUNT(*) AS sessionType11,
            SUM(CASE
                WHEN (a.sessionType = 20) THEN 1
                ELSE 0 END) /COUNT(*) AS sessionType20,
            SUM(CASE
                WHEN (a.sessionType = 21) THEN 1
                ELSE 0 END) /COUNT(*) AS sessionType21,
            SUM(CASE
                WHEN (a.sessionType = 22) THEN 1
                ELSE 0 END) /COUNT(*) AS sessionType22,
            SUM(CASE
                WHEN (a.sessionType = 23) THEN 1
                ELSE 0 END) /COUNT(*) AS sessionType23,
            SUM(CASE
                WHEN (((a.sessionType > 11) AND (a.sessionType < 20)) OR (a.sessionType>23)) THEN 1
                ELSE 0 END) /COUNT(*) AS sessionTypeInvalid,
            SUM(CASE
                WHEN (a.candidateWifiNetworks <0) THEN 1
                ELSE 0 END) /COUNT(*) AS candidateWifiNetworksNeg,
            SUM(CASE
                WHEN (a.candidateWifiNetworks =0) THEN 1
                ELSE 0 END) /COUNT(*) AS candidateWifiNetworksZero,
            SUM(CASE
                WHEN (a.candidateWifiNetworks =1) THEN 1
                ELSE 0 END) /COUNT(*) AS candidateWifiNetworks1,
            SUM(CASE
                WHEN (a.candidateWifiNetworks =2) THEN 1
                ELSE 0 END) /COUNT(*) AS candidateWifiNetworks2,
            SUM(CASE
                WHEN (a.candidateWifiNetworks =3) THEN 1
                ELSE 0 END) /COUNT(*) AS candidateWifiNetworks3,
            SUM(CASE
                WHEN ((a.candidateWifiNetworks >3) AND (a.candidateWifiNetworks <10)) THEN 1
                ELSE 0 END) /COUNT(*) AS candidateWifiNetworks4_to_9,
            SUM(CASE
                WHEN ((a.candidateWifiNetworks >=10) AND (a.candidateWifiNetworks <20)) THEN 1
                ELSE 0 END) /COUNT(*) AS candidateWifiNetworks10_to_19,
            SUM(CASE
                WHEN ((a.candidateWifiNetworks >=20) AND (a.candidateWifiNetworks <50)) THEN 1
                ELSE 0 END) /COUNT(*) AS candidateWifiNetworks20_to_49,
            SUM(CASE
                WHEN ((a.candidateWifiNetworks >=50) AND (a.candidateWifiNetworks <127)) THEN 1
                ELSE 0 END) /COUNT(*) AS candidateWifiNetworks50_to_126,
            SUM(CASE
                WHEN ((a.candidateWifiNetworks >=127)) THEN 1
                ELSE 0 END) /COUNT(*) AS candidateWifiNetworks127plus,
            SUM(CASE
                WHEN (a.crashState <0) THEN 1
                ELSE 0 END) /COUNT(*) AS crashStateNeg,
            SUM(CASE
                WHEN (a.crashState =0) THEN 1
                ELSE 0 END) /COUNT(*) AS crashStateZero,
            SUM(CASE
                WHEN (a.crashState =1) THEN 1
                ELSE 0 END) /COUNT(*) AS crashState1,
            SUM(CASE
                WHEN (a.crashState =2) THEN 1
                ELSE 0 END) /COUNT(*) AS crashState2,
            SUM(CASE
                WHEN (a.crashState =3) THEN 1
                ELSE 0 END) /COUNT(*) AS crashState3,
            SUM(CASE
                WHEN (a.crashState =4) THEN 1
                ELSE 0 END) /COUNT(*) AS crashState4,
            SUM(CASE
                WHEN (a.crashState >4) THEN 1
                ELSE 0 END) /COUNT(*) AS crashStateMoreThan4,
            SUM(CASE
                WHEN (a.lat=0) THEN 1
                ELSE 0 END) /COUNT(*) AS latZero,
            SUM(CASE
                WHEN (a.lat=-1) THEN 1
                ELSE 0 END) /COUNT(*) AS latMinus1,
            SUM(CASE
                WHEN (a.lat=-180) THEN 1
                ELSE 0 END) /COUNT(*) AS latMinus180,
            SUM(CASE
                WHEN (a.lat=180) THEN 1
                ELSE 0 END) /COUNT(*) AS lat180,
            SUM(CASE
                WHEN (a.lat>-180) AND (a.lat<180) AND (a.lat!=0) AND (a.lat!=-1) THEN 1
                ELSE 0 END) /COUNT(*) AS latValid,
            SUM(CASE
                WHEN (a.longt=0) THEN 1
                ELSE 0 END) /COUNT(*) AS longtZero,
            SUM(CASE
                WHEN (a.longt=-1) THEN 1
                ELSE 0 END) /COUNT(*) AS longtMinus1,
            SUM(CASE
                WHEN (a.longt=-180) THEN 1
                ELSE 0 END) /COUNT(*) AS longtMinus180,
            SUM(CASE
                WHEN (a.longt=180) THEN 1
                ELSE 0 END) /COUNT(*) AS longt180,
            SUM(CASE
                WHEN (a.longt>-180) AND (a.longt<180) AND (a.longt!=0) AND (a.longt!=-1) THEN 1
                ELSE 0 END) /COUNT(*) AS longtValid,
            SUM(CASE
                WHEN (a.accuracy=-1) THEN 1
                ELSE 0 END) /COUNT(*) AS accuracyMinus1,
            SUM(CASE
                WHEN (a.accuracy=0) THEN 1
                ELSE 0 END) /COUNT(*) AS accuracyZero,
            SUM(CASE
                WHEN (a.accuracy>0) AND (a.accuracy<100) THEN 1
                ELSE 0 END) /COUNT(*) AS accuracyTill100,
            SUM(CASE
                WHEN (a.accuracy>=100) AND (a.accuracy<1000) THEN 1
                ELSE 0 END) /COUNT(*) AS accuracyTill1000,
            SUM(CASE
                WHEN (a.accuracy>=1000) AND (a.accuracy<10000) THEN 1
                ELSE 0 END) /COUNT(*) AS accuracyTill10000,
            SUM(CASE
                WHEN (a.accuracy>=10000) THEN 1
                ELSE 0 END) /COUNT(*) AS accuracyMoreThan10000,
            SUM(CASE
                WHEN (a.msSinceStart=-1) THEN 1
                ELSE 0 END) /COUNT(*) AS msSinceStartMinus1,
            SUM(CASE
                WHEN (a.msSinceStart=0) THEN 1
                ELSE 0 END) /COUNT(*) AS msSinceStartZero,
            SUM(CASE
                WHEN (a.msSinceStart<-1) AND (a.msSinceStart>-3600000) THEN 1
                ELSE 0 END) /COUNT(*) AS msSinceStart1HourBefore,
            SUM(CASE
                WHEN (a.msSinceStart<=-3600000) AND (a.msSinceStart>-86400000) THEN 1
                ELSE 0 END) /COUNT(*) AS msSinceStartlast1Day,
            SUM(CASE
                WHEN (a.msSinceStart<=-86400000) THEN 1
                ELSE 0 END) /COUNT(*) AS msSinceStartMoreThanDayBefore,
            SUM(CASE
                WHEN (a.msSinceStart>0) AND (a.msSinceStart<3600000) THEN 1
                ELSE 0 END) /COUNT(*) AS msSinceStart1HourAfter,
            SUM(CASE
                WHEN (a.msSinceStart>=3600000) AND (a.msSinceStart<86400000) THEN 1
                ELSE 0 END) /COUNT(*) AS msSinceStart1DayAfter,
            SUM(CASE
                WHEN a.msSinceStart>=86400000 THEN 1
                ELSE 0 END) /COUNT(*) AS msSinceStartMoreThanDayAfter,
            SUM(CASE
                WHEN (a.pkg="null") THEN 1
                ELSE 0 END) /COUNT(*) AS pkgNull,
            SUM(CASE
                WHEN (a.pkg!="null") THEN 1
                ELSE 0 END) /COUNT(*) AS pkgNotNull,
            SUM(CASE
                WHEN (a.appVer=-1) OR (a.appVer=0) THEN 1
                ELSE 0 END) /COUNT(*) AS appVerMinus1Zero,
            SUM(CASE
                WHEN (a.appVer>0) THEN 1
                ELSE 0 END) /COUNT(*) AS appVerPos,
            SUM(CASE
                WHEN (a.rx<-1) THEN 1
                ELSE 0 END) /COUNT(*) AS rxNegative,
            SUM(CASE
                WHEN (a.rx=-1) THEN 1
                ELSE 0 END) /COUNT(*) AS rxMinus1,
            SUM(CASE
                WHEN (a.rx=0) THEN 1
                ELSE 0 END) /COUNT(*) AS rxZero,
            SUM(CASE
                WHEN (a.rx>0) AND (a.rx<1000) THEN 1
                ELSE 0 END) /COUNT(*) AS rxUpTo1KB,
            SUM(CASE
                WHEN (a.rx>=1000) AND (a.rx<1000000) THEN 1
                ELSE 0 END) /COUNT(*) AS rxUpTo1MB,
            SUM(CASE
                WHEN (a.rx>=1000000) AND (a.rx<1000000000) THEN 1
                ELSE 0 END) /COUNT(*) AS rxUpTo1GB,
            SUM(CASE
                WHEN (a.rx>=1000000000) AND (a.rx<100000000000) THEN 1
                ELSE 0 END) /COUNT(*) AS rxUpTo100GB,
            SUM(CASE
                WHEN (a.rx>=100000000000) THEN 1
                ELSE 0 END) /COUNT(*) AS rxMoreThan100GB,
            SUM(CASE
                WHEN (a.tx<-1) THEN 1
                ELSE 0 END) /COUNT(*) AS txNegative,
            SUM(CASE
                WHEN (a.tx=-1) THEN 1
                ELSE 0 END) /COUNT(*) AS txMinus1,
            SUM(CASE
                WHEN (a.tx=0) THEN 1
                ELSE 0 END) /COUNT(*) AS txZero,
            SUM(CASE
                WHEN (a.tx>0) AND (a.tx<1000) THEN 1
                ELSE 0 END) /COUNT(*) AS txUpTo1KB,
            SUM(CASE
                WHEN (a.tx>=1000) AND (a.tx<1000000) THEN 1
                ELSE 0 END) /COUNT(*) AS txUpTo1MB,
            SUM(CASE
                WHEN (a.tx>=1000000) AND (a.tx<1000000000) THEN 1
                ELSE 0 END) /COUNT(*) AS txUpTo1GB,
            SUM(CASE
                WHEN (a.tx>=1000000000) AND (a.tx<100000000000) THEN 1
                ELSE 0 END) /COUNT(*) AS txUpTo100GB,
            SUM(CASE
                WHEN (a.tx>=100000000000) THEN 1
                ELSE 0 END) /COUNT(*) AS txMoreThan100GB,
            SUM(CASE
                WHEN (a.wefiRx<-1) THEN 1
                ELSE 0 END) /COUNT(*) AS wefiRxNegative,
            SUM(CASE
                WHEN (a.wefiRx=-1) THEN 1
                ELSE 0 END) /COUNT(*) AS wefiRxMinus1,
            SUM(CASE
                WHEN (a.wefiRx=0) THEN 1
                ELSE 0 END) /COUNT(*) AS wefiRxZero,
            SUM(CASE
                WHEN (a.wefiRx>0) AND (a.wefiRx<1000) THEN 1
                ELSE 0 END) /COUNT(*) AS wefiRxUpTo1KB,
            SUM(CASE
                WHEN (a.wefiRx>=1000) AND (a.wefiRx<1000000) THEN 1
                ELSE 0 END) /COUNT(*) AS wefiRxUpTo1MB,
            SUM(CASE
                WHEN (a.wefiRx>=1000000) AND (a.wefiRx<10000000) THEN 1
                ELSE 0 END) /COUNT(*) AS wefiRxUpTo10MB,
            SUM(CASE
                WHEN (a.wefiRx>=10000000) AND (a.wefiRx<100000000) THEN 1
                ELSE 0 END) /COUNT(*) AS wefiRxUpTo100MB,
            SUM(CASE
                WHEN (a.wefiRx>=100000000) THEN 1
                ELSE 0 END) /COUNT(*) AS wefiRxMoreThan100MB,
            SUM(CASE
                WHEN (a.wefiTx<-1) THEN 1
                ELSE 0 END) /COUNT(*) AS wefiTxNegative,
            SUM(CASE
                WHEN (a.wefiTx=-1) THEN 1
                ELSE 0 END) /COUNT(*) AS wefiTxMinus1,
            SUM(CASE
                WHEN (a.wefiTx=0) THEN 1
                ELSE 0 END) /COUNT(*) AS wefiTxZero,
            SUM(CASE
                WHEN (a.wefiTx>0) AND (a.wefiTx<1000) THEN 1
                ELSE 0 END) /COUNT(*) AS wefiTxUpTo1KB,
            SUM(CASE
                WHEN (a.wefiTx>=1000) AND (a.wefiTx<1000000) THEN 1
                ELSE 0 END) /COUNT(*) AS wefiTxUpTo1MB,
            SUM(CASE
                WHEN (a.wefiTx>=1000000) AND (a.wefiTx<10000000) THEN 1
                ELSE 0 END) /COUNT(*) AS wefiTxUpTo10MB,
            SUM(CASE
                WHEN (a.wefiTx>=10000000) AND (a.wefiTx<100000000) THEN 1
                ELSE 0 END) /COUNT(*) AS wefiTxUpTo100MB,
            SUM(CASE
                WHEN (a.wefiTx>=100000000) THEN 1
                ELSE 0 END) /COUNT(*) AS wefiTxMoreThan100MB,
            SUM(CASE
                WHEN (a.maxRxThrpt<-1) THEN 1
                ELSE 0 END) /COUNT(*) AS maxRxThrptNegative,
            SUM(CASE
                WHEN (a.maxRxThrpt=-1) THEN 1
                ELSE 0 END) /COUNT(*) AS maxRxThrptMinus1,
            SUM(CASE
                WHEN (a.maxRxThrpt=0) THEN 1
                ELSE 0 END) /COUNT(*) AS maxRxThrptZero,
            SUM(CASE
                WHEN (a.maxRxThrpt>0) AND (a.maxRxThrpt<1000) THEN 1
                ELSE 0 END) /COUNT(*) AS maxRxThrptUpTo1Kbps,
            SUM(CASE
                WHEN (a.maxRxThrpt>=1000) AND (a.maxRxThrpt<1000000) THEN 1
                ELSE 0 END) /COUNT(*) AS maxRxThrptUpTo1Mbps,
            SUM(CASE
                WHEN (a.maxRxThrpt>=1000000) AND (a.maxRxThrpt<10000000) THEN 1
                ELSE 0 END) /COUNT(*) AS maxRxThrptUpTo10Mbps,
            SUM(CASE
                WHEN (a.maxRxThrpt>=10000000) AND (a.maxRxThrpt<100000000) THEN 1
                ELSE 0 END) /COUNT(*) AS maxRxThrptUpTo100Mbps,
            SUM(CASE
                WHEN (a.maxRxThrpt>=100000000) THEN 1
                ELSE 0 END) /COUNT(*) AS maxRxThrptMoreThan100Mbps,
            SUM(CASE
                WHEN (a.maxTxThrpt<-1) THEN 1
                ELSE 0 END) /COUNT(*) AS maxTxThrptNegative,
            SUM(CASE
                WHEN (a.maxTxThrpt=-1) THEN 1
                ELSE 0 END) /COUNT(*) AS maxTxThrptMinus1,
            SUM(CASE
                WHEN (a.maxTxThrpt=0) THEN 1
                ELSE 0 END) /COUNT(*) AS maxTxThrptZero,
            SUM(CASE
                WHEN (a.maxTxThrpt>0) AND (a.maxTxThrpt<1000) THEN 1
                ELSE 0 END) /COUNT(*) AS maxTxThrptUpTo1Kbps,
            SUM(CASE
                WHEN (a.maxTxThrpt>=1000) AND (a.maxTxThrpt<1000000) THEN 1
                ELSE 0 END) /COUNT(*) AS maxTxThrptUpTo1Mbps,
            SUM(CASE
                WHEN (a.maxTxThrpt>=1000000) AND (a.maxTxThrpt<10000000) THEN 1
                ELSE 0 END) /COUNT(*) AS maxTxThrptUpTo10Mbps,
            SUM(CASE
                WHEN (a.maxTxThrpt>=10000000) AND (a.maxTxThrpt<100000000) THEN 1
                ELSE 0 END) /COUNT(*) AS maxTxThrptUpTo100Mbps,
            SUM(CASE
                WHEN (a.maxTxThrpt>=100000000) THEN 1
                ELSE 0 END) /COUNT(*) AS maxTxThrptMoreThan100Mbps,
            SUM(CASE
                WHEN (a.wAvgRxThrpt<-1) THEN 1
                ELSE 0 END) /COUNT(*) AS wAvgRxThrptNegative,
            SUM(CASE
                WHEN (a.wAvgRxThrpt=-1) THEN 1
                ELSE 0 END) /COUNT(*) AS wAvgRxThrptMinus1,
            SUM(CASE
                WHEN (a.wAvgRxThrpt=0) THEN 1
                ELSE 0 END) /COUNT(*) AS wAvgRxThrptZero,
            SUM(CASE
                WHEN (a.wAvgRxThrpt>0) AND (a.wAvgRxThrpt<1000) THEN 1
                ELSE 0 END) /COUNT(*) AS wAvgRxThrptUpTo1Kbps,
            SUM(CASE
                WHEN (a.wAvgRxThrpt>=1000) AND (a.wAvgRxThrpt<1000000) THEN 1
                ELSE 0 END) /COUNT(*) AS wAvgRxThrptUpTo1Mbps,
            SUM(CASE
                WHEN (a.wAvgRxThrpt>=1000000) AND (a.wAvgRxThrpt<10000000) THEN 1
                ELSE 0 END) /COUNT(*) AS wAvgRxThrptUpTo10Mbps,
            SUM(CASE
                WHEN (a.wAvgRxThrpt>=10000000) AND (a.wAvgRxThrpt<100000000) THEN 1
                ELSE 0 END) /COUNT(*) AS wAvgRxThrptUpTo100Mbps,
            SUM(CASE
                WHEN (a.wAvgRxThrpt>=100000000) THEN 1
                ELSE 0 END) /COUNT(*) AS wAvgRxThrptMoreThan100Mbps,
            SUM(CASE
                WHEN (a.wAvgTxThrpt<-1) THEN 1
                ELSE 0 END) /COUNT(*) AS wAvgTxThrptNegative,
            SUM(CASE
                WHEN (a.wAvgTxThrpt=-1) THEN 1
                ELSE 0 END) /COUNT(*) AS wAvgTxThrptMinus1,
            SUM(CASE
                WHEN (a.wAvgTxThrpt=0) THEN 1
                ELSE 0 END) /COUNT(*) AS wAvgTxThrptZero,
            SUM(CASE
                WHEN (a.wAvgTxThrpt>0) AND (a.wAvgTxThrpt<1000) THEN 1
                ELSE 0 END) /COUNT(*) AS wAvgTxThrptUpTo1Kbps,
            SUM(CASE
                WHEN (a.wAvgTxThrpt>=1000) AND (a.wAvgTxThrpt<1000000) THEN 1
                ELSE 0 END) /COUNT(*) AS wAvgTxThrptUpTo1Mbps,
            SUM(CASE
                WHEN (a.wAvgTxThrpt>=1000000) AND (a.wAvgTxThrpt<10000000) THEN 1
                ELSE 0 END) /COUNT(*) AS wAvgTxThrptUpTo10Mbps,
            SUM(CASE
                WHEN (a.wAvgTxThrpt>=10000000) AND (a.wAvgTxThrpt<100000000) THEN 1
                ELSE 0 END) /COUNT(*) AS wAvgTxThrptUpTo100Mbps,
            SUM(CASE
                WHEN (a.wAvgTxThrpt>=100000000) THEN 1
                ELSE 0 END) /COUNT(*) AS wAvgTxThrptMoreThan100Mbps,
            SUM(CASE
                WHEN (a.disconnectReason < 0 ) THEN 1
                ELSE 0 END) /COUNT(*) AS disconnectReasonNeg,
            SUM(CASE
                WHEN (a.disconnectReason = 0 ) THEN 1
                ELSE 0 END) /COUNT(*) AS disconnectReason0,
            SUM(CASE
                WHEN (a.disconnectReason = 1 ) THEN 1
                ELSE 0 END) /COUNT(*) AS disconnectReason1,
            SUM(CASE
                WHEN (a.disconnectReason = 2 ) THEN 1
                ELSE 0 END) /COUNT(*) AS disconnectReason2,
            SUM(CASE
                WHEN (a.disconnectReason = 3 ) THEN 1
                ELSE 0 END) /COUNT(*) AS disconnectReason3,
            SUM(CASE
                WHEN (a.disconnectReason = 4 ) THEN 1
                ELSE 0 END) /COUNT(*) AS disconnectReason4,
            SUM(CASE
                WHEN (a.disconnectReason = 5 ) THEN 1
                ELSE 0 END) /COUNT(*) AS disconnectReason5,
            SUM(CASE
                WHEN (a.disconnectReason = 6 ) THEN 1
                ELSE 0 END) /COUNT(*) AS disconnectReasonn6,
            SUM(CASE
                WHEN (a.disconnectReason = 7 ) THEN 1
                ELSE 0 END) /COUNT(*) AS disconnectReason7,
            SUM(CASE
                WHEN (a.disconnectReason = 8 ) THEN 1
                ELSE 0 END) /COUNT(*) AS disconnectReason8,
            SUM(CASE
                WHEN (a.disconnectReason = 9 ) THEN 1
                ELSE 0 END) /COUNT(*) AS disconnectReason9,
            SUM(CASE
                WHEN (a.disconnectReason = 10 ) THEN 1
                ELSE 0 END) /COUNT(*) AS disconnectReason10,
            SUM(CASE
                WHEN (a.disconnectReason = 11) THEN 1
                ELSE 0 END) /COUNT(*) AS disconnectReason11,
            SUM(CASE
                WHEN (a.disconnectReason = 12) THEN 1
                ELSE 0 END) /COUNT(*) AS disconnectReason12,
            SUM(CASE
                WHEN (a.disconnectReason = 13) THEN 1
                ELSE 0 END) /COUNT(*) AS disconnectReason13,
            SUM(CASE
                WHEN (a.disconnectReason = 14) THEN 1
                ELSE 0 END) /COUNT(*) AS disconnectReason14,
            SUM(CASE
                WHEN (a.disconnectReason = 19) THEN 1
                ELSE 0 END) /COUNT(*) AS disconnectReason19,
            SUM(CASE
                WHEN (a.disconnectReason = 20) THEN 1
                ELSE 0 END) /COUNT(*) AS disconnectReason20,
            SUM(CASE
                WHEN (a.disconnectReason = 21) THEN 1
                ELSE 0 END) /COUNT(*) AS disconnectReason21,
            SUM(CASE
                WHEN (a.disconnectReason = 22) THEN 1
                ELSE 0 END) /COUNT(*) AS disconnectReason22,
            SUM(CASE
                WHEN (a.disconnectReason > 22) THEN 1
                ELSE 0 END) /COUNT(*) AS disconnectReasonGreaterThan22,
            SUM(CASE
                WHEN (a.latency= -1) THEN 1
                ELSE 0 END) /COUNT(*) AS latencyMinus1,
            SUM(CASE
                WHEN (a.latency= 0) THEN 1
                ELSE 0 END) /COUNT(*) AS latencyZero,
            SUM(CASE
                WHEN (a.latency> 0) AND (a.latency< 1000) THEN 1
                ELSE 0 END) /COUNT(*) AS latencyUpTo1Sec,
            SUM(CASE
                WHEN (a.latency>= 1000) AND (a.latency< 2000) THEN 1
                ELSE 0 END) /COUNT(*) AS latencyUpTo2Sec,
            SUM(CASE
                WHEN (a.latency>= 2000) AND (a.latency< 5000) THEN 1
                ELSE 0 END) /COUNT(*) AS latencyUpTo5Sec,
            SUM(CASE
                WHEN (a.latency>= 5000) AND (a.latency< 10000) THEN 1
                ELSE 0 END) /COUNT(*) AS latencyUpTo10Sec,
            SUM(CASE
                WHEN (a.latency>= 10000) AND (a.latency< 60000) THEN 1
                ELSE 0 END) /COUNT(*) AS latencyUpTo1Min,
            SUM(CASE
                WHEN (a.latency>= 60000) THEN 1
                ELSE 0 END) /COUNT(*) AS latencyMoreThan1Min,
            SUM(CASE
                WHEN (a.wAvgLatency= -1) THEN 1
                ELSE 0 END) /COUNT(*) AS wAvglatencyMinus1,
            SUM(CASE
                WHEN (a.wAvgLatency= 0) THEN 1
                ELSE 0 END) /COUNT(*) AS wAvglatencyZero,
            SUM(CASE
                WHEN (a.wAvgLatency> 0) AND (a.wAvgLatency< 1000) THEN 1
                ELSE 0 END) /COUNT(*) AS wAvglatencyUpTo1Sec,
            SUM(CASE
                WHEN (a.wAvgLatency>= 1000) AND (a.wAvgLatency< 2000) THEN 1
                ELSE 0 END) /COUNT(*) AS wAvglatencyUpTo2Sec,
            SUM(CASE
                WHEN (a.wAvgLatency>= 2000) AND (a.wAvgLatency< 5000) THEN 1
                ELSE 0 END) /COUNT(*) AS wAvglatencyUpTo5Sec,
            SUM(CASE
                WHEN (a.wAvgLatency>= 5000) AND (a.wAvgLatency< 10000) THEN 1
                ELSE 0 END) /COUNT(*) AS wAvglatencyUpTo10Sec,
            SUM(CASE
                WHEN (a.wAvgLatency>= 10000) AND (a.wAvgLatency< 60000) THEN 1
                ELSE 0 END) /COUNT(*) AS wAvglatencyUpTo1Min,
            SUM(CASE
                WHEN (a.wAvgLatency>= 60000) THEN 1
                ELSE 0 END) /COUNT(*) AS wAvglatencyMoreThan1Min,
            SUM(CASE
                WHEN (a.signal<=-120) THEN 1
                ELSE 0 END) /COUNT(*) AS signalMinus120AndBelow,
            SUM(CASE
                WHEN (a.signal<-113) AND (a.signal>-120) THEN 1
                ELSE 0 END) /COUNT(*) AS signalBetween113And120,
            SUM(CASE
                WHEN (a.signal=-113) THEN 1
                ELSE 0 END) /COUNT(*) AS signalMinu113,
            SUM(CASE
                WHEN (a.signal<-90) AND (a.signal>-113) THEN 1
                ELSE 0 END) /COUNT(*) AS signalBetween113And90,
            SUM(CASE
                WHEN (a.signal<-80) AND (a.signal>=-90) THEN 1
                ELSE 0 END) /COUNT(*) AS signalBetween90And80,
            SUM(CASE
                WHEN (a.signal<-70) AND (a.signal>=-80) THEN 1
                ELSE 0 END) /COUNT(*) AS signalBetween80And70,
            SUM(CASE
                WHEN (a.signal<-60) AND (a.signal>=-70) THEN 1
                ELSE 0 END) /COUNT(*) AS signalBetween70And60,
            SUM(CASE
                WHEN (a.signal<-50) AND (a.signal>=-60) THEN 1
                ELSE 0 END) /COUNT(*) AS signalBetween60And50,
            SUM(CASE
                WHEN (a.signal<-40) AND (a.signal>=-50) THEN 1
                ELSE 0 END) /COUNT(*) AS signalBetween50And40,
            SUM(CASE
                WHEN (a.signal<-30) AND (a.signal>=-40) THEN 1
                ELSE 0 END) /COUNT(*) AS signalBetween40And30,
            SUM(CASE
                WHEN (a.signal<-20) AND (a.signal>=-30) THEN 1
                ELSE 0 END) /COUNT(*) AS signalBetween30And20,
            SUM(CASE
                WHEN (a.signal<-1) AND (a.signal>=-20) THEN 1
                ELSE 0 END) /COUNT(*) AS signalBetween20And1,
            SUM(CASE
                WHEN (a.signal=-1) THEN 1
                ELSE 0 END) /COUNT(*) AS signalMinus1,
            SUM(CASE
                WHEN (a.signal= 0) THEN 1
                ELSE 0 END) /COUNT(*) AS signalMinus0,
            SUM(CASE
                WHEN (a.signal> 0) THEN 1
                ELSE 0 END) /COUNT(*) AS signalMinusPos,
            SUM(CASE
                WHEN (a.minsignal<=-120) THEN 1
                ELSE 0 END) /COUNT(*) AS minSignalMinus120AndBelow,
            SUM(CASE
                WHEN (a.minsignal<-113) AND (a.minsignal>-120) THEN 1
                ELSE 0 END) /COUNT(*) AS minSignalBetween113And120,
            SUM(CASE
                WHEN (a.minsignal=-113) THEN 1
                ELSE 0 END) /COUNT(*) AS minSignalMinu113,
            SUM(CASE
                WHEN (a.minsignal<-90) AND (a.minsignal>-113) THEN 1
                ELSE 0 END) /COUNT(*) AS minSignalBetween113And90,
            SUM(CASE
                WHEN (a.minsignal<-80) AND (a.minsignal>=-90) THEN 1
                ELSE 0 END) /COUNT(*) AS minSignalBetween90And80,
            SUM(CASE
                WHEN (a.minsignal<-70) AND (a.minsignal>=-80) THEN 1
                ELSE 0 END) /COUNT(*) AS minSignalBetween80And70,
            SUM(CASE
                WHEN (a.minsignal<-60) AND (a.minsignal>=-70) THEN 1
                ELSE 0 END) /COUNT(*) AS minSignalBetween70And60,
            SUM(CASE
                WHEN (a.minsignal<-50) AND (a.minsignal>=-60) THEN 1
                ELSE 0 END) /COUNT(*) AS minSignalBetween60And50,
            SUM(CASE
                WHEN (a.minsignal<-40) AND (a.minsignal>=-50) THEN 1
                ELSE 0 END) /COUNT(*) AS minSignalBetween50And40,
            SUM(CASE
                WHEN (a.minsignal<-30) AND (a.minsignal>=-40) THEN 1
                ELSE 0 END) /COUNT(*) AS minSignalBetween40And30,
            SUM(CASE
                WHEN (a.minsignal<-20) AND (a.minsignal>=-30) THEN 1
                ELSE 0 END) /COUNT(*) AS minSignalBetween30And20,
            SUM(CASE
                WHEN (a.minsignal<-1) AND (a.minsignal>=-20) THEN 1
                ELSE 0 END) /COUNT(*) AS minSignalBetween20And1,
            SUM(CASE
                WHEN (a.minsignal=-1) THEN 1
                ELSE 0 END) /COUNT(*) AS minSignalMinus1,
            SUM(CASE
                WHEN (a.minsignal= 0) THEN 1
                ELSE 0 END) /COUNT(*) AS minSignalMinus0,
            SUM(CASE
                WHEN (a.minsignal> 0) THEN 1
                ELSE 0 END) /COUNT(*) AS minSignalMinusPos,
            SUM(CASE
                WHEN (a.avgsignal<=-120) THEN 1
                ELSE 0 END) /COUNT(*) AS avgSignalMinus120AndBelow,
            SUM(CASE
                WHEN (a.avgsignal<-113) AND (a.avgsignal>-120) THEN 1
                ELSE 0 END) /COUNT(*) AS avgSignalBetween113And120,
            SUM(CASE
                WHEN (a.avgsignal=-113) THEN 1
                ELSE 0 END) /COUNT(*) AS avgSignalMinu113,
            SUM(CASE
                WHEN (a.avgsignal<-90) AND (a.avgsignal>-113) THEN 1
                ELSE 0 END) /COUNT(*) AS avgSignalBetween113And90,
            SUM(CASE
                WHEN (a.avgsignal<-80) AND (a.avgsignal>=-90) THEN 1
                ELSE 0 END) /COUNT(*) AS avgSignalBetween90And80,
            SUM(CASE
                WHEN (a.avgsignal<-70) AND (a.avgsignal>=-80) THEN 1
                ELSE 0 END) /COUNT(*) AS avgSignalBetween80And70,
            SUM(CASE
                WHEN (a.avgsignal<-60) AND (a.avgsignal>=-70) THEN 1
                ELSE 0 END) /COUNT(*) AS avgSignalBetween70And60,
            SUM(CASE
                WHEN (a.avgsignal<-50) AND (a.avgsignal>=-60) THEN 1
                ELSE 0 END) /COUNT(*) AS avgSignalBetween60And50,
            SUM(CASE
                WHEN (a.avgsignal<-40) AND (a.avgsignal>=-50) THEN 1
                ELSE 0 END) /COUNT(*) AS avgSignalBetween50And40,
            SUM(CASE
                WHEN (a.avgsignal<-30) AND (a.avgsignal>=-40) THEN 1
                ELSE 0 END) /COUNT(*) AS avgSignalBetween40And30,
            SUM(CASE
                WHEN (a.avgsignal<-20) AND (a.avgsignal>=-30) THEN 1
                ELSE 0 END) /COUNT(*) AS avgSignalBetween30And20,
            SUM(CASE
                WHEN (a.avgsignal<-1) AND (a.avgsignal>=-20) THEN 1
                ELSE 0 END) /COUNT(*) AS avgSignalBetween20And1,
            SUM(CASE
                WHEN (a.avgsignal=-1) THEN 1
                ELSE 0 END) /COUNT(*) AS avgSignalMinus1,
            SUM(CASE
                WHEN (a.avgsignal= 0) THEN 1
                ELSE 0 END) /COUNT(*) AS avgSignalMinus0,
            SUM(CASE
                WHEN (a.avgsignal> 0) THEN 1
                ELSE 0 END) /COUNT(*) AS avgSignalMinusPos,
            SUM(CASE
                WHEN (a.exitsignal<=-120) THEN 1
                ELSE 0 END) /COUNT(*) AS exitSignalMinus120AndBelow,
            SUM(CASE
                WHEN (a.exitsignal<-113) AND (a.exitsignal>-120) THEN 1
                ELSE 0 END) /COUNT(*) AS exitSignalBetween113And120,
            SUM(CASE
                WHEN (a.exitsignal=-113) THEN 1
                ELSE 0 END) /COUNT(*) AS exitSignalMinu113,
            SUM(CASE
                WHEN (a.exitsignal<-90) AND (a.exitsignal>-113) THEN 1
                ELSE 0 END) /COUNT(*) AS exitSignalBetween113And90,
            SUM(CASE
                WHEN (a.exitsignal<-80) AND (a.exitsignal>=-90) THEN 1
                ELSE 0 END) /COUNT(*) AS exitSignalBetween90And80,
            SUM(CASE
                WHEN (a.exitsignal<-70) AND (a.exitsignal>=-80) THEN 1
                ELSE 0 END) /COUNT(*) AS exitSignalBetween80And70,
            SUM(CASE
                WHEN (a.exitsignal<-60) AND (a.exitsignal>=-70) THEN 1
                ELSE 0 END) /COUNT(*) AS exitSignalBetween70And60,
            SUM(CASE
                WHEN (a.exitsignal<-50) AND (a.exitsignal>=-60) THEN 1
                ELSE 0 END) /COUNT(*) AS exitSignalBetween60And50,
            SUM(CASE
                WHEN (a.exitsignal<-40) AND (a.exitsignal>=-50) THEN 1
                ELSE 0 END) /COUNT(*) AS exitSignalBetween50And40,
            SUM(CASE
                WHEN (a.exitsignal<-30) AND (a.exitsignal>=-40) THEN 1
                ELSE 0 END) /COUNT(*) AS exitSignalBetween40And30,
            SUM(CASE
                WHEN (a.exitsignal<-20) AND (a.exitsignal>=-30) THEN 1
                ELSE 0 END) /COUNT(*) AS exitSignalBetween30And20,
            SUM(CASE
                WHEN (a.exitsignal<-1) AND (a.exitsignal>=-20) THEN 1
                ELSE 0 END) /COUNT(*) AS exitSignalBetween20And1,
            SUM(CASE
                WHEN (a.exitsignal=-1) THEN 1
                ELSE 0 END) /COUNT(*) AS exitSignalMinus1,
            SUM(CASE
                WHEN (a.exitsignal= 0) THEN 1
                ELSE 0 END) /COUNT(*) AS exitSignalMinus0,
            SUM(CASE
                WHEN (a.exitsignal> 0) THEN 1
                ELSE 0 END) /COUNT(*) AS exitSignalMinusPos,
            SUM(CASE
                WHEN (a.serverTalkStatus= -1) THEN 1
                ELSE 0 END) /COUNT(*) AS serverTalkminus1,
            SUM(CASE
                WHEN (a.serverTalkStatus= 0) THEN 1
                ELSE 0 END) /COUNT(*) AS serverTalk0,
            SUM(CASE
                WHEN (a.serverTalkStatus= 1) THEN 1
                ELSE 0 END) /COUNT(*) AS serverTalk1,
            SUM(CASE
                WHEN (a.serverTalkStatus= 2) THEN 1
                ELSE 0 END) /COUNT(*) AS serverTalk2,
            SUM(CASE
                WHEN (a.serverTalkStatus= 3) THEN 1
                ELSE 0 END) /COUNT(*) AS serverTalk3,
            SUM(CASE
                WHEN (a.serverTalkStatus= 4) THEN 1
                ELSE 0 END) /COUNT(*) AS serverTalk4,
            SUM(CASE
                WHEN (a.serverTalkStatus= 5) THEN 1
                ELSE 0 END) /COUNT(*) AS serverTalk5,
            SUM(CASE
                WHEN (a.serverTalkStatus= 6) THEN 1
                ELSE 0 END) /COUNT(*) AS serverTalk6,
            SUM(CASE
                WHEN (a.serverTalkStatus= 7) THEN 1
                ELSE 0 END) /COUNT(*) AS serverTalk7,
            SUM(CASE
                WHEN (a.inetState< 0) OR (a.inetState> 11) THEN 1
                ELSE 0 END) /COUNT(*) AS inetStateInvalid,
            SUM(CASE
                WHEN (a.inetState= 0) THEN 1
                ELSE 0 END) /COUNT(*) AS inetState0,
            SUM(CASE
                WHEN (a.inetState= 1) THEN 1
                ELSE 0 END) /COUNT(*) AS inetState1,
            SUM(CASE
                WHEN (a.inetState= 2) THEN 1
                ELSE 0 END) /COUNT(*) AS inetState2,
            SUM(CASE
                WHEN (a.inetState= 3) THEN 1
                ELSE 0 END) /COUNT(*) AS inetState3,
            SUM(CASE
                WHEN (a.inetState= 4) THEN 1
                ELSE 0 END) /COUNT(*) AS inetState4,
            SUM(CASE
                WHEN (a.inetState= 5) THEN 1
                ELSE 0 END) /COUNT(*) AS inetState5,
            SUM(CASE
                WHEN (a.inetState= 6) THEN 1
                ELSE 0 END) /COUNT(*) AS inetState6,
            SUM(CASE
                WHEN (a.inetState= 7) THEN 1
                ELSE 0 END) /COUNT(*) AS inetState7,
            SUM(CASE
                WHEN (a.inetState= 8) THEN 1
                ELSE 0 END) /COUNT(*) AS inetState8,
            SUM(CASE
                WHEN (a.inetState= 9) THEN 1
                ELSE 0 END) /COUNT(*) AS inetState9,
            SUM(CASE
                WHEN (a.inetState= 10) THEN 1
                ELSE 0 END) /COUNT(*) AS inetState10,
            SUM(CASE
                WHEN (a.inetState= 11) THEN 1
                ELSE 0 END) /COUNT(*) AS inetState11,
            SUM(CASE
                WHEN (a.wefiEngRx<-1) THEN 1
                ELSE 0 END) /COUNT(*) AS wefiEngRxNegative,
            SUM(CASE
                WHEN (a.wefiEngRx=-1) THEN 1
                ELSE 0 END) /COUNT(*) AS wefiEngRxMinus1,
            SUM(CASE
                WHEN (a.wefiEngRx=0) THEN 1
                ELSE 0 END) /COUNT(*) AS wefiEngRxZero,
            SUM(CASE
                WHEN (a.wefiEngRx>0) AND (a.wefiEngRx<1000) THEN 1
                ELSE 0 END) /COUNT(*) AS wefiEngRxUpTo1KB,
            SUM(CASE
                WHEN (a.wefiEngRx>=1000) AND (a.wefiEngRx<1000000) THEN 1
                ELSE 0 END) /COUNT(*) AS wefiEngRxUpTo1MB,
            SUM(CASE
                WHEN (a.wefiEngRx>=1000000) AND (a.wefiEngRx<10000000) THEN 1
                ELSE 0 END) /COUNT(*) AS wefiEngRxUpTo10MB,
            SUM(CASE
                WHEN (a.wefiEngRx>=10000000) AND (a.wefiEngRx<100000000) THEN 1
                ELSE 0 END) /COUNT(*) AS wefiEngRxUpTo100MB,
            SUM(CASE
                WHEN (a.wefiEngRx>=100000000) THEN 1
                ELSE 0 END) /COUNT(*) AS wefiEngRxMoreThan100MB,
            SUM(CASE
                WHEN (a.wefiEngTx<-1) THEN 1
                ELSE 0 END) /COUNT(*) AS wefiEngTxNegative,
            SUM(CASE
                WHEN (a.wefiEngTx=-1) THEN 1
                ELSE 0 END) /COUNT(*) AS wefiEngTxMinus1,
            SUM(CASE
                WHEN (a.wefiEngTx=0) THEN 1
                ELSE 0 END) /COUNT(*) AS wefiEngTxZero,
            SUM(CASE
                WHEN (a.wefiEngTx>0) AND (a.wefiEngTx<1000) THEN 1
                ELSE 0 END) /COUNT(*) AS wefiEngTxUpTo1KB,
            SUM(CASE
                WHEN (a.wefiEngTx>=1000) AND (a.wefiEngTx<1000000) THEN 1
                ELSE 0 END) /COUNT(*) AS wefiEngTxUpTo1MB,
            SUM(CASE
                WHEN (a.wefiEngTx>=1000000) AND (a.wefiEngTx<10000000) THEN 1
                ELSE 0 END) /COUNT(*) AS wefiEngTxUpTo10MB,
            SUM(CASE
                WHEN (a.wefiEngTx>=10000000) AND (a.wefiEngTx<100000000) THEN 1
                ELSE 0 END) /COUNT(*) AS wefiEngTxUpTo100MB,
            SUM(CASE
                WHEN (a.wefiEngTx>=100000000) THEN 1
                ELSE 0 END) /COUNT(*) AS wefiEngTxMoreThan100MB,
            SUM(CASE
                WHEN (a.activeMode= 0) THEN 1
                ELSE 0 END) /COUNT(*) AS activeMode0,
            SUM(CASE
                WHEN (a.activeMode= 1) THEN 1
                ELSE 0 END) /COUNT(*) AS activeMode1,
            SUM(CASE
                WHEN (a.activeMode= 2) THEN 1
                ELSE 0 END) /COUNT(*) AS activeMode2,
            SUM(CASE
                WHEN (a.activeMode< 0) OR (a.activeMode> 2) THEN 1
                ELSE 0 END) /COUNT(*) AS activeModeInvalid,
            SUM(CASE
                WHEN (a.connectedCnr= 0) THEN 1
                ELSE 0 END) /COUNT(*) AS connectedCnr0,
            SUM(CASE
                WHEN (a.connectedCnr< 0) THEN 1
                ELSE 0 END) /COUNT(*) AS connectedCnrNeg,
            SUM(CASE
                WHEN (a.connectedCnr> 0) AND (a.connectedCnr< 100000) THEN 1
                ELSE 0 END) /COUNT(*) AS connectedCnrless100000,
            SUM(CASE
                WHEN (a.connectedCnr>= 100000) THEN 1
                ELSE 0 END) /COUNT(*) AS connectedCnrMoreThan100000,
            SUM(CASE
                WHEN (a.connectedDevices= -1) THEN 1
                ELSE 0 END) /COUNT(*) AS connectedDevicesMinus1,
            SUM(CASE
                WHEN (a.connectedDevices= 0) THEN 1
                ELSE 0 END) /COUNT(*) AS connectedDevices0,
            SUM(CASE
                WHEN (a.connectedDevices= 1) THEN 1
                ELSE 0 END) /COUNT(*) AS connectedDevices1,
            SUM(CASE
                WHEN (a.connectedDevices> 1) AND (a.connectedDevices< 10)THEN 1
                ELSE 0 END) /COUNT(*) AS connectedDevicesUpTo10,
            SUM(CASE
                WHEN (a.connectedDevices>= 10) AND (a.connectedDevices< 30)THEN 1
                ELSE 0 END) /COUNT(*) AS connectedDevicesUpTo30,
            SUM(CASE
                WHEN (a.connectedDevices>=30 ) AND (a.connectedDevices< 100)THEN 1
                ELSE 0 END) /COUNT(*) AS connectedDevicesUpTo100,
            SUM(CASE
                WHEN (a.connectedDevices>=100 ) AND (a.connectedDevices< 127)THEN 1
                ELSE 0 END) /COUNT(*) AS connectedDevicesUpTo126,
            SUM(CASE
                WHEN (a.connectedDevices>=127) THEN 1
                ELSE 0 END) /COUNT(*) AS connectedDevicesMoreThan126,
            SUM(CASE
                WHEN (a.profileStatus= -1) THEN 1
                ELSE 0 END) /COUNT(*) AS profileStatusMinus1,
            SUM(CASE
                WHEN (a.profileStatus= 0) THEN 1
                ELSE 0 END) /COUNT(*) AS profileStatus0,
            SUM(CASE
                WHEN (a.profileStatus= 1) THEN 1
                ELSE 0 END) /COUNT(*) AS profileStatus1,
            SUM(CASE
                WHEN (a.profileStatus= 2) THEN 1
                ELSE 0 END) /COUNT(*) AS profileStatus2,
            SUM(CASE
                WHEN (a.profileStatus= 3) THEN 1
                ELSE 0 END) /COUNT(*) AS profileStatus3,
            SUM(CASE
                WHEN (a.profileStatus= 4) THEN 1
                ELSE 0 END) /COUNT(*) AS profileStatus4,
            SUM(CASE
                WHEN (a.profileStatus>4) OR (a.profileStatus<-1) THEN 1
                ELSE 0 END) /COUNT(*) AS profileStatusInvalid,
            SUM(CASE
                WHEN (a.ssid IS NULL) OR (a.ssid="") OR (a.ssid=" ") THEN 1
                ELSE 0 END) /COUNT(*) AS ssidEmpty,
            SUM(CASE
                WHEN (LENGTH(a.ssid)>0) AND (a.ssid IS NOT NULL) AND (a.ssid!=" ") THEN 1
                ELSE 0 END) /COUNT(*) AS ssidCorrect,
            SUM(CASE
                WHEN (a.encType= -1) THEN 1
                ELSE 0 END) /COUNT(*) AS encTypeMinus1,
            SUM(CASE
                WHEN (a.encType= 0) THEN 1
                ELSE 0 END) /COUNT(*) AS encType0,
            SUM(CASE
                WHEN (a.encType= 1) THEN 1
                ELSE 0 END) /COUNT(*) AS encType1,
            SUM(CASE
                WHEN (a.encType= 2) THEN 1
                ELSE 0 END) /COUNT(*) AS encType2,
            SUM(CASE
                WHEN (a.encType= 3) THEN 1
                ELSE 0 END) /COUNT(*) AS encType3,
            SUM(CASE
                WHEN (a.encType= 4) THEN 1
                ELSE 0 END) /COUNT(*) AS encType4,
            SUM(CASE
                WHEN (a.encType= 5) THEN 1
                ELSE 0 END) /COUNT(*) AS encType5,
            SUM(CASE
                WHEN (a.encType> 5) OR (a.encType< -1) THEN 1
                ELSE 0 END) /COUNT(*) AS encTypeInvalid,
            SUM(CASE
                WHEN (a.wifiFrequency= -1) THEN 1
                ELSE 0 END) /COUNT(*) AS wifiFrequencyMinus1,
            SUM(CASE
                WHEN (a.wifiFrequency= 0) THEN 1
                ELSE 0 END) /COUNT(*) AS wifiFrequency0,
            SUM(CASE
                WHEN (a.wifiFrequency>0) AND (a.wifiFrequency<2000) THEN 1
                ELSE 0 END) /COUNT(*) AS wifiFrequency1To2000,
            SUM(CASE
                WHEN (a.wifiFrequency>=2000) AND (a.wifiFrequency<3000) THEN 1
                ELSE 0 END) /COUNT(*) AS wifiFrequency2000To3000,
            SUM(CASE
                WHEN (a.wifiFrequency>=3000) AND (a.wifiFrequency<5000) THEN 1
                ELSE 0 END) /COUNT(*) AS wifiFrequency3000To5000,
            SUM(CASE
                WHEN (a.wifiFrequency>=5000) AND (a.wifiFrequency<6000) THEN 1
                ELSE 0 END) /COUNT(*) AS wifiFrequency5000To6000,
            SUM(CASE
                WHEN (a.wifiFrequency>=6000) THEN 1
                ELSE 0 END) /COUNT(*) AS wifiFrequencyMoreThan6000,
            MIN(DATE(a.sessionLocalStartDate)) AS min_date,
            MAX(DATE(a.sessionLocalStartDate)) AS max_date /*************************/
          FROM (
            SELECT
              *
            FROM
              --TABLE_DATE_RANGE({v12_old_version_table}_wificonnection.T_, TIMESTAMP("{v5_old_version_start_date}"), TIMESTAMP("{v6_old_version_end_date}")))
            TABLE_QUERY({v12_old_version_table}_wificonnection{truconnect}, 'table_id BETWEEN CONCAT(SUBSTR("{v5_old_version_start_date}",0,4),"_","{v5_old_version_start_date}")
    AND CONCAT(SUBSTR("{v6_old_version_end_date}",0,4),"_","{v6_old_version_end_date}")' ) ) AS a
        WHERE
          softwareVersion IN ({v2_old_version})/*2_old_version*/
          AND cnc IN (
          SELECT
            cnc
          FROM (
            SELECT
              *
            FROM
              --TABLE_DATE_RANGE({v11_new_version_table}_wificonnection.T_, TIMESTAMP("{v3_new_version_start_date}"), TIMESTAMP("{v4_new_version_end_date}")))
            TABLE_QUERY({v11_new_version_table}_wificonnection{truconnect}, 'table_id BETWEEN CONCAT(SUBSTR("{v3_new_version_start_date}",0,4),"_","{v3_new_version_start_date}")
    AND CONCAT(SUBSTR("{v4_new_version_end_date}",0,4),"_","{v4_new_version_end_date}")' ) )
        WHERE
          softwareVersion IN ({v1_new_version})
        GROUP BY
          cnc)
        AND isfirstRecord=1
      GROUP BY
        a.softwareVersion,
        a.sessionType )))))